//Maya ASCII 2020 scene
//Name: Archway.ma
//Last modified: Fri, Sep 11, 2020 03:42:03 PM
//Codeset: 1252
requires maya "2020";
requires "stereoCamera" "10.0";
requires "stereoCamera" "10.0";
currentUnit -l centimeter -a degree -t film;
fileInfo "application" "maya";
fileInfo "product" "Maya 2020";
fileInfo "version" "2020";
fileInfo "cutIdentifier" "201911140446-42a737a01c";
fileInfo "osv" "Microsoft Windows 10 Technical Preview  (Build 18363)\n";
fileInfo "UUID" "DD87FCA9-4080-55E6-A2AE-9EBCB102F5C7";
fileInfo "license" "student";
createNode transform -n "pCylinder20";
	rename -uid "453FDBC5-46FD-603A-ACC2-918398B74777";
	setAttr ".t" -type "double3" 2.6656690419440561 1.1258448220683077 -9.6134685148037651 ;
	setAttr ".s" -type "double3" 0.49948122403174428 1.2783452524465269 0.49948122403174428 ;
createNode transform -n "transform25" -p "pCylinder20";
	rename -uid "808FDB68-4AA9-3FFD-E512-5B96BC1D2969";
	setAttr ".v" no;
createNode mesh -n "pCylinderShape20" -p "transform25";
	rename -uid "2D3676C0-4D2B-9C1B-8C0A-B2B58C3B4A1B";
	setAttr -k off ".v";
	setAttr ".io" yes;
	setAttr ".iog[0].og[0].gcl" -type "componentList" 1 "f[0:65]";
	setAttr ".vir" yes;
	setAttr ".vif" yes;
	setAttr ".pv" -type "double2" 0.5 0.84375 ;
	setAttr ".uvst[0].uvsn" -type "string" "map1";
	setAttr -s 97 ".uvst[0].uvsp[0:96]" -type "float2" 0.61048543 0.04576458
		 0.5 1.4901161e-08 0.38951457 0.04576458 0.34375 0.15625 0.38951457 0.26673543 0.5
		 0.3125 0.61048543 0.26673543 0.65625 0.15625 0.375 0.3125 0.40625 0.3125 0.4375 0.3125
		 0.46875 0.3125 0.5 0.3125 0.53125 0.3125 0.5625 0.3125 0.59375 0.3125 0.625 0.3125
		 0.375 0.68843985 0.40625 0.68843985 0.4375 0.68843985 0.46875 0.68843985 0.5 0.68843985
		 0.53125 0.68843985 0.5625 0.68843985 0.59375 0.68843985 0.625 0.68843985 0.61048543
		 0.73326457 0.5 0.6875 0.38951457 0.73326457 0.34375 0.84375 0.38951457 0.95423543
		 0.5 1 0.61048543 0.95423543 0.65625 0.84375 0.625 0.38768798 0.375 0.38768798 0.59375
		 0.38768798 0.5625 0.38768798 0.53125 0.38768798 0.5 0.38768798 0.46875 0.38768798
		 0.4375 0.38768798 0.40625003 0.38768798 0.625 0.47791356 0.375 0.47791356 0.59375
		 0.47791356 0.5625 0.47791356 0.53125 0.47791356 0.5 0.47791356 0.46875 0.47791356
		 0.4375 0.47791356 0.40625 0.47791356 0.625 0.56212407 0.375 0.56212407 0.59375 0.56212407
		 0.5625 0.56212407 0.53125 0.56212407 0.5 0.56212407 0.46875 0.56212407 0.4375 0.56212407
		 0.40625 0.56212407 0.625 0.63791353 0.375 0.63791353 0.59375 0.63791353 0.5625 0.63791353
		 0.53125 0.63791353 0.5 0.63791353 0.46875 0.63791353 0.4375 0.63791353 0.40625 0.63791353
		 0.625 0.6000188 0.375 0.6000188 0.40625 0.6000188 0.4375 0.6000188 0.46875 0.6000188
		 0.5 0.6000188 0.53125 0.6000188 0.5625 0.6000188 0.59375 0.6000188 0.625 0.51159775
		 0.375 0.51159775 0.40625 0.51159775 0.4375 0.51159775 0.46875 0.51159775 0.5 0.51159775
		 0.53125 0.51159775 0.5625 0.51159775 0.59375 0.51159775 0.625 0.42377824 0.375 0.42377824
		 0.40625003 0.42377824 0.4375 0.42377824 0.46875 0.42377824 0.5 0.42377824 0.53125
		 0.42377824 0.5625 0.42377824 0.59375 0.42377824;
	setAttr ".cuvs" -type "string" "map1";
	setAttr ".dcc" -type "string" "Ambient+Diffuse";
	setAttr ".covm[0]"  0 1 1;
	setAttr ".cdvm[0]"  0 1 1;
	setAttr -s 56 ".pt[16:71]" -type "float3"  0.045145411 -0.065561339 
		-0.045145411 0.063845254 -0.065561339 -3.5713572e-09 0.045145411 -0.065561339 0.045145411 
		-3.8054737e-09 -0.065561339 0.063845247 -0.045145411 -0.065561339 0.045145411 -0.063845254 
		-0.065561339 -3.5713572e-09 -0.045145411 -0.065561339 -0.045145411 -3.8054737e-09 
		-0.065561339 -0.063845247 0.045145411 -0.034915622 -0.045145411 0.063845254 -0.034915622 
		-3.5713572e-09 0.045145411 -0.034915622 0.045145411 -3.8054737e-09 -0.034915622 0.06384524 
		-0.045145411 -0.034915622 0.045145411 -0.063845254 -0.034915622 -3.5713572e-09 -0.045145411 
		-0.034915622 -0.045145411 -3.8054737e-09 -0.034915622 -0.063845247 0.045145411 -0.0063129519 
		-0.045145411 0.063845254 -0.0063129519 -3.5713572e-09 0.045145411 -0.0063129519 0.045145411 
		-3.8054737e-09 -0.0063129519 0.063845247 -0.045145411 -0.0063129519 0.045145411 -0.063845254 
		-0.0063129519 -3.5713572e-09 -0.045145411 -0.0063129519 -0.045145411 -3.8054737e-09 
		-0.0063129519 -0.063845247 0.045145411 0.019429462 -0.045145411 0.063845254 0.019429462 
		-3.5713572e-09 0.045145411 0.019429462 0.045145411 -3.8054737e-09 0.019429462 0.06384524 
		-0.045145411 0.019429462 0.045145411 -0.063845254 0.019429462 -3.5713572e-09 -0.045145411 
		0.019429462 -0.045145411 -3.8054737e-09 0.019429462 -0.063845247 -0.042353563 -0.028079715 
		0.042353563 3.5701393e-09 -0.028079715 0.059896979 0.042353563 -0.028079715 0.042353563 
		0.059896998 -0.028079715 2.1963802e-10 0.042353563 -0.028079715 -0.04235357 3.5701393e-09 
		-0.028079715 -0.059896994 -0.042353563 -0.028079715 -0.04235357 -0.059896998 -0.028079715 
		2.1963802e-10 -0.042353563 9.5834606e-05 0.042353563 3.5701393e-09 9.5834606e-05 
		0.059896994 0.042353563 9.5834606e-05 0.042353563 0.059896998 9.5834606e-05 2.1963802e-10 
		0.042353563 9.5834606e-05 -0.04235357 3.5701393e-09 9.5834606e-05 -0.059896994 -0.042353563 
		9.5834606e-05 -0.04235357 -0.059896998 9.5834606e-05 2.1963802e-10 -0.042353563 0.028079715 
		0.042353563 3.5701393e-09 0.028079715 0.059896994 0.042353563 0.028079715 0.042353563 
		0.059896998 0.028079715 2.1963802e-10 0.042353563 0.028079715 -0.04235357 3.5701393e-09 
		0.028079715 -0.059896994 -0.042353563 0.028079715 -0.04235357 -0.059896998 0.028079715 
		2.1963802e-10;
	setAttr -s 72 ".vt[0:71]"  0.70710671 -1 -0.70710671 0 -1 -0.99999988
		 -0.70710671 -1 -0.70710671 -0.99999988 -1 0 -0.70710671 -1 0.70710671 0 -1 0.99999994
		 0.70710677 -1 0.70710677 1 -1 0 0.70710671 1 -0.70710671 0 1 -0.99999988 -0.70710671 1 -0.70710671
		 -0.99999988 1 0 -0.70710671 1 0.70710671 0 1 0.99999994 0.70710677 1 0.70710677 1 1 0
		 0.80631745 -0.69338709 -0.80631733 1.14030516 -0.69338709 -4.1814174e-09 0.80631745 -0.69338709 0.80631745
		 -8.3628349e-09 -0.69338709 1.14030504 -0.80631733 -0.69338709 0.80631745 -1.14030504 -0.69338709 -4.1814174e-09
		 -0.80631733 -0.69338709 -0.80631733 -8.3628349e-09 -0.69338709 -1.14030492 0.80631745 -0.1460406 -0.80631733
		 1.14030516 -0.1460406 -4.1814174e-09 0.80631745 -0.1460406 0.80631745 -8.3628349e-09 -0.1460406 1.14030492
		 -0.80631733 -0.1460406 0.80631745 -1.14030504 -0.1460406 -4.1814174e-09 -0.80631733 -0.1460406 -0.80631733
		 -8.3628349e-09 -0.1460406 -1.14030492 0.80631745 0.36481604 -0.80631733 1.14030516 0.36481604 -4.1814174e-09
		 0.80631745 0.36481604 0.80631745 -8.3628349e-09 0.36481604 1.14030504 -0.80631733 0.36481604 0.80631745
		 -1.14030504 0.36481604 -4.1814174e-09 -0.80631733 0.36481604 -0.80631733 -8.3628349e-09 0.36481604 -1.14030492
		 0.80631745 0.82458711 -0.80631733 1.14030516 0.82458711 -4.1814174e-09 0.80631745 0.82458711 0.80631745
		 -8.3628349e-09 0.82458711 1.14030492 -0.80631733 0.82458711 0.80631745 -1.14030504 0.82458711 -4.1814174e-09
		 -0.80631733 0.82458711 -0.80631733 -8.3628349e-09 0.82458711 -1.14030492 0.80631745 0.59470159 -0.80631733
		 -8.3628349e-09 0.59470159 -1.14030492 -0.80631733 0.59470159 -0.80631733 -1.14030504 0.59470159 -4.1814174e-09
		 -0.80631733 0.59470159 0.80631745 -8.3628349e-09 0.59470159 1.14030504 0.80631745 0.59470159 0.80631745
		 1.14030516 0.59470159 -4.1814174e-09 0.80631745 0.058302052 -0.80631733 -8.3628349e-09 0.058302052 -1.14030504
		 -0.80631733 0.058302052 -0.80631733 -1.14030504 0.058302052 -4.1814174e-09 -0.80631733 0.058302052 0.80631745
		 -8.3628349e-09 0.058302052 1.14030504 0.80631745 0.058302052 0.80631745 1.14030516 0.058302052 -4.1814174e-09
		 0.80631745 -0.47444853 -0.80631733 -8.3628349e-09 -0.47444853 -1.14030504 -0.80631733 -0.47444853 -0.80631733
		 -1.14030504 -0.47444853 -4.1814174e-09 -0.80631733 -0.47444853 0.80631745 -8.3628349e-09 -0.47444853 1.14030504
		 0.80631745 -0.47444853 0.80631745 1.14030516 -0.47444853 -4.1814174e-09;
	setAttr -s 136 ".ed[0:135]"  0 1 0 1 2 0 2 3 0 3 4 0 4 5 0 5 6 0 6 7 0
		 7 0 0 8 9 0 9 10 0 10 11 0 11 12 0 12 13 0 13 14 0 14 15 0 15 8 0 0 16 0 1 23 0 2 22 0
		 3 21 0 4 20 0 5 19 0 6 18 0 7 17 0 16 64 0 17 71 0 18 70 0 19 69 0 20 68 0 21 67 0
		 22 66 0 23 65 0 16 17 1 17 18 1 18 19 1 19 20 1 20 21 1 21 22 1 22 23 1 23 16 1 24 56 0
		 25 63 0 26 62 0 27 61 0 28 60 0 29 59 0 30 58 0 31 57 0 24 25 1 25 26 1 26 27 1 27 28 1
		 28 29 1 29 30 1 30 31 1 31 24 1 32 48 0 33 55 0 34 54 0 35 53 0 36 52 0 37 51 0 38 50 0
		 39 49 0 32 33 1 33 34 1 34 35 1 35 36 1 36 37 1 37 38 1 38 39 1 39 32 1 40 8 0 41 15 0
		 42 14 0 43 13 0 44 12 0 45 11 0 46 10 0 47 9 0 40 41 1 41 42 1 42 43 1 43 44 1 44 45 1
		 45 46 1 46 47 1 47 40 1 48 40 0 49 47 0 50 46 0 51 45 0 52 44 0 53 43 0 54 42 0 55 41 0
		 48 49 1 49 50 1 50 51 1 51 52 1 52 53 1 53 54 1 54 55 1 55 48 1 56 32 0 57 39 0 58 38 0
		 59 37 0 60 36 0 61 35 0 62 34 0 63 33 0 56 57 1 57 58 1 58 59 1 59 60 1 60 61 1 61 62 1
		 62 63 1 63 56 1 64 24 0 65 31 0 66 30 0 67 29 0 68 28 0 69 27 0 70 26 0 71 25 0 64 65 1
		 65 66 1 66 67 1 67 68 1 68 69 1 69 70 1 70 71 1 71 64 1;
	setAttr -s 66 -ch 272 ".fc[0:65]" -type "polyFaces" 
		f 4 0 17 39 -17
		mu 0 4 8 9 42 35
		f 4 1 18 38 -18
		mu 0 4 9 10 41 42
		f 4 2 19 37 -19
		mu 0 4 10 11 40 41
		f 4 3 20 36 -20
		mu 0 4 11 12 39 40
		f 4 4 21 35 -21
		mu 0 4 12 13 38 39
		f 4 5 22 34 -22
		mu 0 4 13 14 37 38
		f 4 6 23 33 -23
		mu 0 4 14 15 36 37
		f 4 7 16 32 -24
		mu 0 4 15 16 34 36
		f 8 -8 -7 -6 -5 -4 -3 -2 -1
		mu 0 8 0 7 6 5 4 3 2 1
		f 8 8 9 10 11 12 13 14 15
		mu 0 8 32 31 30 29 28 27 26 33
		f 4 135 120 48 -128
		mu 0 4 96 88 43 45
		f 4 134 127 49 -127
		mu 0 4 95 96 45 46
		f 4 133 126 50 -126
		mu 0 4 94 95 46 47
		f 4 132 125 51 -125
		mu 0 4 93 94 47 48
		f 4 131 124 52 -124
		mu 0 4 92 93 48 49
		f 4 130 123 53 -123
		mu 0 4 91 92 49 50
		f 4 129 122 54 -122
		mu 0 4 90 91 50 51
		f 4 128 121 55 -121
		mu 0 4 89 90 51 44
		f 4 119 104 64 -112
		mu 0 4 87 79 52 54
		f 4 118 111 65 -111
		mu 0 4 86 87 54 55
		f 4 117 110 66 -110
		mu 0 4 85 86 55 56
		f 4 116 109 67 -109
		mu 0 4 84 85 56 57
		f 4 115 108 68 -108
		mu 0 4 83 84 57 58
		f 4 114 107 69 -107
		mu 0 4 82 83 58 59
		f 4 113 106 70 -106
		mu 0 4 81 82 59 60
		f 4 112 105 71 -105
		mu 0 4 80 81 60 53
		f 4 103 88 80 -96
		mu 0 4 78 70 61 63
		f 4 102 95 81 -95
		mu 0 4 77 78 63 64
		f 4 101 94 82 -94
		mu 0 4 76 77 64 65
		f 4 100 93 83 -93
		mu 0 4 75 76 65 66
		f 4 99 92 84 -92
		mu 0 4 74 75 66 67
		f 4 98 91 85 -91
		mu 0 4 73 74 67 68
		f 4 97 90 86 -90
		mu 0 4 72 73 68 69
		f 4 96 89 87 -89
		mu 0 4 71 72 69 62
		f 4 -81 72 -16 -74
		mu 0 4 63 61 25 24
		f 4 -82 73 -15 -75
		mu 0 4 64 63 24 23
		f 4 -83 74 -14 -76
		mu 0 4 65 64 23 22
		f 4 -84 75 -13 -77
		mu 0 4 66 65 22 21
		f 4 -85 76 -12 -78
		mu 0 4 67 66 21 20
		f 4 -86 77 -11 -79
		mu 0 4 68 67 20 19
		f 4 -87 78 -10 -80
		mu 0 4 69 68 19 18
		f 4 -88 79 -9 -73
		mu 0 4 62 69 18 17
		f 4 -72 63 -97 -57
		mu 0 4 53 60 72 71
		f 4 -71 62 -98 -64
		mu 0 4 60 59 73 72
		f 4 -70 61 -99 -63
		mu 0 4 59 58 74 73
		f 4 -69 60 -100 -62
		mu 0 4 58 57 75 74
		f 4 -68 59 -101 -61
		mu 0 4 57 56 76 75
		f 4 -67 58 -102 -60
		mu 0 4 56 55 77 76
		f 4 -66 57 -103 -59
		mu 0 4 55 54 78 77
		f 4 -65 56 -104 -58
		mu 0 4 54 52 70 78
		f 4 -56 47 -113 -41
		mu 0 4 44 51 81 80
		f 4 -55 46 -114 -48
		mu 0 4 51 50 82 81
		f 4 -54 45 -115 -47
		mu 0 4 50 49 83 82
		f 4 -53 44 -116 -46
		mu 0 4 49 48 84 83
		f 4 -52 43 -117 -45
		mu 0 4 48 47 85 84
		f 4 -51 42 -118 -44
		mu 0 4 47 46 86 85
		f 4 -50 41 -119 -43
		mu 0 4 46 45 87 86
		f 4 -49 40 -120 -42
		mu 0 4 45 43 79 87
		f 4 -40 31 -129 -25
		mu 0 4 35 42 90 89
		f 4 -39 30 -130 -32
		mu 0 4 42 41 91 90
		f 4 -38 29 -131 -31
		mu 0 4 41 40 92 91
		f 4 -37 28 -132 -30
		mu 0 4 40 39 93 92
		f 4 -36 27 -133 -29
		mu 0 4 39 38 94 93
		f 4 -35 26 -134 -28
		mu 0 4 38 37 95 94
		f 4 -34 25 -135 -27
		mu 0 4 37 36 96 95
		f 4 -33 24 -136 -26
		mu 0 4 36 34 88 96;
	setAttr ".cd" -type "dataPolyComponent" Index_Data Edge 0 ;
	setAttr ".cvd" -type "dataPolyComponent" Index_Data Vertex 0 ;
	setAttr ".pd[0]" -type "dataPolyComponent" Index_Data UV 0 ;
	setAttr ".hfd" -type "dataPolyComponent" Index_Data Face 0 ;
createNode transform -n "pCylinder21";
	rename -uid "CE1F256D-4653-B5F1-C872-9B973D943A58";
	setAttr ".t" -type "double3" 2.6837224262321628 2.0974134231127093 -9.6134685148037651 ;
	setAttr ".r" -type "double3" 0 0 15.003552714892262 ;
	setAttr ".s" -type "double3" 0.49948122403174428 1.2783452524465269 0.49948122403174428 ;
createNode mesh -n "polySurfaceShape6" -p "pCylinder21";
	rename -uid "9C3932E1-4F03-F4B1-F61E-A7A31B63AFEB";
	setAttr -k off ".v";
	setAttr ".io" yes;
	setAttr ".vir" yes;
	setAttr ".vif" yes;
	setAttr ".pv" -type "double2" 0.390625 0.58107143640518188 ;
	setAttr ".uvst[0].uvsn" -type "string" "map1";
	setAttr -s 53 ".uvst[0].uvsp[0:52]" -type "float2" 0.375 0.68843985
		 0.40625 0.68843985 0.4375 0.68843985 0.46875 0.68843985 0.5 0.68843985 0.53125 0.68843985
		 0.5625 0.68843985 0.59375 0.68843985 0.625 0.68843985 0.61048543 0.73326457 0.5 0.6875
		 0.38951457 0.73326457 0.34375 0.84375 0.38951457 0.95423543 0.5 1 0.61048543 0.95423543
		 0.65625 0.84375 0.625 0.56212407 0.375 0.56212407 0.59375 0.56212407 0.5625 0.56212407
		 0.53125 0.56212407 0.5 0.56212407 0.46875 0.56212407 0.4375 0.56212407 0.40625 0.56212407
		 0.625 0.63791353 0.375 0.63791353 0.59375 0.63791353 0.5625 0.63791353 0.53125 0.63791353
		 0.5 0.63791353 0.46875 0.63791353 0.4375 0.63791353 0.40625 0.63791353 0.625 0.6000188
		 0.375 0.6000188 0.40625 0.6000188 0.4375 0.6000188 0.46875 0.6000188 0.5 0.6000188
		 0.53125 0.6000188 0.5625 0.6000188 0.59375 0.6000188 0.625 0.51159775 0.375 0.51159775
		 0.40625 0.51159775 0.4375 0.51159775 0.46875 0.51159775 0.5 0.51159775 0.53125 0.51159775
		 0.5625 0.51159775 0.59375 0.51159775;
	setAttr ".cuvs" -type "string" "map1";
	setAttr ".dcc" -type "string" "Ambient+Diffuse";
	setAttr ".covm[0]"  0 1 1;
	setAttr ".cdvm[0]"  0 1 1;
	setAttr -s 40 ".vt[0:39]"  0.70710671 1 -0.70710671 0 1 -0.99999988
		 -0.70710671 1 -0.70710671 -0.99999988 1 0 -0.70710671 1 0.70710671 0 1 0.99999994
		 0.70710677 1 0.70710677 1 1 0 0.85146284 0.35850307 -0.85146272 1.20415044 0.35850307 -7.7527744e-09
		 0.85146284 0.35850307 0.85146284 -1.2168309e-08 0.35850307 1.20415032 -0.85146272 0.35850307 0.85146284
		 -1.20415032 0.35850307 -7.7527744e-09 -0.85146272 0.35850307 -0.85146272 -1.2168309e-08 0.35850307 -1.2041502
		 0.85146284 0.84401655 -0.85146272 1.20415044 0.84401655 -7.7527744e-09 0.85146284 0.84401655 0.85146284
		 -1.2168309e-08 0.84401655 1.2041502 -0.85146272 0.84401655 0.85146284 -1.20415032 0.84401655 -7.7527744e-09
		 -0.85146272 0.84401655 -0.85146272 -1.2168309e-08 0.84401655 -1.2041502 0.76396388 0.5666219 -0.76396376
		 -4.7926956e-09 0.5666219 -1.080407977 -0.76396376 0.5666219 -0.76396376 -1.080408096 0.5666219 -3.9617793e-09
		 -0.76396376 0.5666219 0.76396388 -4.7926956e-09 0.5666219 1.080408096 0.76396388 0.5666219 0.76396388
		 1.080408216 0.5666219 -3.9617793e-09 0.76396388 0.058397885 -0.76396376 -4.7926956e-09 0.058397885 -1.080408096
		 -0.76396376 0.058397885 -0.76396376 -1.080408096 0.058397885 -3.9617793e-09 -0.76396376 0.058397885 0.76396388
		 -4.7926956e-09 0.058397885 1.080408096 0.76396388 0.058397885 0.76396388 1.080408216 0.058397885 -3.9617793e-09;
	setAttr -s 71 ".ed[0:70]"  0 1 0 1 2 0 2 3 0 3 4 0 4 5 0 5 6 0 6 7 0
		 7 0 0 8 24 0 9 31 0 10 30 0 11 29 0 12 28 0 13 27 0 14 26 0 8 9 1 9 10 1 10 11 1
		 11 12 1 12 13 1 13 14 1 14 15 0 15 8 0 16 0 0 17 7 0 18 6 0 19 5 0 20 4 0 21 3 0
		 22 2 0 23 1 0 16 17 1 17 18 1 18 19 1 19 20 1 20 21 1 21 22 1 22 23 1 23 16 1 24 16 0
		 25 23 0 26 22 0 27 21 0 28 20 0 29 19 0 30 18 0 31 17 0 24 25 0 25 26 0 26 27 1 27 28 1
		 28 29 1 29 30 1 30 31 1 31 24 1 32 8 0 33 15 0 34 14 0 35 13 0 36 12 0 37 11 0 38 10 0
		 39 9 0 32 33 0 33 34 0 34 35 0 35 36 0 36 37 0 37 38 0 38 39 0 39 32 0;
	setAttr -s 31 -ch 128 ".fc[0:30]" -type "polyFaces" 
		f 8 0 1 2 3 4 5 6 7
		mu 0 8 15 14 13 12 11 10 9 16
		f 4 70 55 15 -63
		mu 0 4 52 44 17 19
		f 4 69 62 16 -62
		mu 0 4 51 52 19 20
		f 4 68 61 17 -61
		mu 0 4 50 51 20 21
		f 4 67 60 18 -60
		mu 0 4 49 50 21 22
		f 4 66 59 19 -59
		mu 0 4 48 49 22 23
		f 4 65 58 20 -58
		mu 0 4 47 48 23 24
		f 4 64 57 21 -57
		mu 0 4 46 47 24 25
		f 4 63 56 22 -56
		mu 0 4 45 46 25 18
		f 4 54 39 31 -47
		mu 0 4 43 35 26 28
		f 4 53 46 32 -46
		mu 0 4 42 43 28 29
		f 4 52 45 33 -45
		mu 0 4 41 42 29 30
		f 4 51 44 34 -44
		mu 0 4 40 41 30 31
		f 4 50 43 35 -43
		mu 0 4 39 40 31 32
		f 4 49 42 36 -42
		mu 0 4 38 39 32 33
		f 4 48 41 37 -41
		mu 0 4 37 38 33 34
		f 4 47 40 38 -40
		mu 0 4 36 37 34 27
		f 4 -32 23 -8 -25
		mu 0 4 28 26 8 7
		f 4 -33 24 -7 -26
		mu 0 4 29 28 7 6
		f 4 -34 25 -6 -27
		mu 0 4 30 29 6 5
		f 4 -35 26 -5 -28
		mu 0 4 31 30 5 4
		f 4 -36 27 -4 -29
		mu 0 4 32 31 4 3
		f 4 -37 28 -3 -30
		mu 0 4 33 32 3 2
		f 4 -38 29 -2 -31
		mu 0 4 34 33 2 1
		f 4 -39 30 -1 -24
		mu 0 4 27 34 1 0
		f 4 -21 13 -50 -15
		mu 0 4 24 23 39 38
		f 4 -20 12 -51 -14
		mu 0 4 23 22 40 39
		f 4 -19 11 -52 -13
		mu 0 4 22 21 41 40
		f 4 -18 10 -53 -12
		mu 0 4 21 20 42 41
		f 4 -17 9 -54 -11
		mu 0 4 20 19 43 42
		f 4 -16 8 -55 -10
		mu 0 4 19 17 35 43;
	setAttr ".cd" -type "dataPolyComponent" Index_Data Edge 0 ;
	setAttr ".cvd" -type "dataPolyComponent" Index_Data Vertex 0 ;
	setAttr ".pd[0]" -type "dataPolyComponent" Index_Data UV 0 ;
	setAttr ".hfd" -type "dataPolyComponent" Index_Data Face 0 ;
createNode transform -n "transform26" -p "pCylinder21";
	rename -uid "FEC79549-4110-B37B-3F0C-9EB23C2A7691";
	setAttr ".v" no;
createNode mesh -n "pCylinderShape21" -p "transform26";
	rename -uid "7146D796-4B96-9F0C-0281-44A9634A3E2F";
	setAttr -k off ".v";
	setAttr ".io" yes;
	setAttr -s 2 ".iog[0].og";
	setAttr ".vir" yes;
	setAttr ".vif" yes;
	setAttr ".pv" -type "double2" 0.453125 0.58107143640518188 ;
	setAttr ".uvst[0].uvsn" -type "string" "map1";
	setAttr ".cuvs" -type "string" "map1";
	setAttr ".dcc" -type "string" "Ambient+Diffuse";
	setAttr ".covm[0]"  0 1 1;
	setAttr ".cdvm[0]"  0 1 1;
createNode transform -n "pCylinder22";
	rename -uid "D2E686C3-4414-20A5-FCCE-9F88C013674D";
	setAttr ".t" -type "double3" 2.4494137463863903 3.0556656412310303 -9.6113897352554734 ;
	setAttr ".r" -type "double3" -2.1309178706325858 5.4107005350044375 37.606377957555864 ;
	setAttr ".s" -type "double3" 0.49948122403174428 1.2783452524465269 0.49948122403174428 ;
createNode transform -n "transform27" -p "pCylinder22";
	rename -uid "5BFCD532-40F7-7727-043E-B49063ECCE45";
	setAttr ".v" no;
createNode mesh -n "pCylinderShape22" -p "transform27";
	rename -uid "3DE2ADEF-4E04-C328-2DE8-88975797BD51";
	setAttr -k off ".v";
	setAttr ".io" yes;
	setAttr ".iog[0].og[0].gcl" -type "componentList" 1 "f[0:32]";
	setAttr ".vir" yes;
	setAttr ".vif" yes;
	setAttr ".pv" -type "double2" 0.453125 0.58107143640518188 ;
	setAttr ".uvst[0].uvsn" -type "string" "map1";
	setAttr -s 51 ".uvst[0].uvsp[0:50]" -type "float2" 0.375 0.68843985
		 0.40625 0.68843985 0.4375 0.68843985 0.46875 0.68843985 0.5 0.68843985 0.53125 0.68843985
		 0.5625 0.68843985 0.59375 0.68843985 0.625 0.68843985 0.61048543 0.73326457 0.5 0.6875
		 0.38951457 0.73326457 0.34375 0.84375 0.38951457 0.95423543 0.5 1 0.61048543 0.95423543
		 0.65625 0.84375 0.5 0.56212407 0.59375 0.56212407 0.5625 0.56212407 0.53125 0.56212407
		 0.5 0.56212407 0.46875 0.56212407 0.4375 0.56212407 0.40625 0.56212407 0.625 0.63791353
		 0.375 0.63791353 0.59375 0.63791353 0.5625 0.63791353 0.53125 0.63791353 0.5 0.63791353
		 0.46875 0.63791353 0.4375 0.63791353 0.40625 0.63791353 0.5 0.6000188 0.40625 0.6000188
		 0.4375 0.6000188 0.46875 0.6000188 0.5 0.6000188 0.53125 0.6000188 0.5625 0.6000188
		 0.59375 0.6000188 0.625 0.51159775 0.375 0.51159775 0.40625 0.51159775 0.4375 0.51159775
		 0.46875 0.51159775 0.5 0.51159775 0.53125 0.51159775 0.5625 0.51159775 0.59375 0.51159775;
	setAttr ".cuvs" -type "string" "map1";
	setAttr ".dcc" -type "string" "Ambient+Diffuse";
	setAttr ".covm[0]"  0 1 1;
	setAttr ".cdvm[0]"  0 1 1;
	setAttr -s 40 ".vt[0:39]"  0.70710659 1 -0.70710754 0 1 -1 -0.70710564 1 -0.70710754
		 -0.99999905 1.000000238419 0 -0.70710564 1 0.70710373 0 1 1 0.70710659 1 0.70710373
		 1.000000953674 1 0 0.85146284 0.35850346 -0.85146332 1.20415068 0.35850346 0 0.85146284 0.35850346 0.85146332
		 9.5367432e-07 0.35850346 1.20415115 -0.85146189 0.35850334 0.85146332 -1.20414972 0.35850346 0
		 -0.85146189 0.35850334 -0.85146332 9.5367432e-07 0.35850346 -1.20414925 0.85146332 0.84401703 -0.85146332
		 1.20415163 0.84401703 0 0.85146332 0.84401703 0.85146332 1.4305115e-06 0.84401679 1.20414925
		 -0.85146236 0.84401655 0.85146332 -1.20414972 0.84401703 0 -0.85146236 0.84401655 -0.85146332
		 1.4305115e-06 0.84401679 -1.20414925 0.76396465 0.56662226 -0.7639637 9.5367432e-07 0.56662214 -1.080408096
		 -0.76396275 0.56662226 -0.7639637 -1.080407143 0.56662226 0 -0.76396275 0.56662226 0.76396179
		 9.5367432e-07 0.56662214 1.080404282 0.76396465 0.56662226 0.76396179 1.080408573 0.56662202 0
		 0.76396418 0.058398247 -0.7639637 9.5367432e-07 0.058398247 -1.080408096 -0.76396275 0.058398247 -0.7639637
		 -1.080407619 0.058398366 0 -0.76396275 0.058398247 0.76396179 9.5367432e-07 0.058398247 1.080404282
		 0.76396418 0.058398247 0.76396179 1.08040905 0.058398247 0;
	setAttr -s 72 ".ed[0:71]"  0 1 0 1 2 0 2 3 0 3 4 0 4 5 0 5 6 0 6 7 0
		 7 0 0 8 24 0 9 31 0 10 30 0 11 29 0 12 28 0 13 27 0 14 26 0 8 9 1 9 10 1 10 11 1
		 11 12 1 12 13 1 13 14 1 14 15 0 15 8 0 16 0 0 17 7 0 18 6 0 19 5 0 20 4 0 21 3 0
		 22 2 0 23 1 0 16 17 1 17 18 1 18 19 1 19 20 1 20 21 1 21 22 1 22 23 1 23 16 1 24 16 0
		 25 23 0 26 22 0 27 21 0 28 20 0 29 19 0 30 18 0 31 17 0 24 25 0 25 26 0 26 27 1 27 28 1
		 28 29 1 29 30 1 30 31 1 31 24 1 32 8 0 33 15 0 34 14 0 35 13 0 36 12 0 37 11 0 38 10 0
		 39 9 0 32 33 0 33 34 0 34 35 0 35 36 0 36 37 0 37 38 0 38 39 0 39 32 0 15 25 0;
	setAttr -s 33 -ch 136 ".fc[0:32]" -type "polyFaces" 
		f 8 0 1 2 3 4 5 6 7
		mu 0 8 15 14 13 12 11 10 9 16
		f 4 70 55 15 -63
		mu 0 4 50 42 17 18
		f 4 69 62 16 -62
		mu 0 4 49 50 18 19
		f 4 68 61 17 -61
		mu 0 4 48 49 19 20
		f 4 67 60 18 -60
		mu 0 4 47 48 20 21
		f 4 66 59 19 -59
		mu 0 4 46 47 21 22
		f 4 65 58 20 -58
		mu 0 4 45 46 22 23
		f 4 64 57 21 -57
		mu 0 4 44 45 23 24
		f 4 63 56 22 -56
		mu 0 4 43 44 24 17
		f 4 54 39 31 -47
		mu 0 4 41 34 25 27
		f 4 53 46 32 -46
		mu 0 4 40 41 27 28
		f 4 52 45 33 -45
		mu 0 4 39 40 28 29
		f 4 51 44 34 -44
		mu 0 4 38 39 29 30
		f 4 50 43 35 -43
		mu 0 4 37 38 30 31
		f 4 49 42 36 -42
		mu 0 4 36 37 31 32
		f 4 48 41 37 -41
		mu 0 4 35 36 32 33
		f 4 47 40 38 -40
		mu 0 4 34 35 33 26
		f 4 -32 23 -8 -25
		mu 0 4 27 25 8 7
		f 4 -33 24 -7 -26
		mu 0 4 28 27 7 6
		f 4 -34 25 -6 -27
		mu 0 4 29 28 6 5
		f 4 -35 26 -5 -28
		mu 0 4 30 29 5 4
		f 4 -36 27 -4 -29
		mu 0 4 31 30 4 3
		f 4 -37 28 -3 -30
		mu 0 4 32 31 3 2
		f 4 -38 29 -2 -31
		mu 0 4 33 32 2 1
		f 4 -39 30 -1 -24
		mu 0 4 26 33 1 0
		f 4 -21 13 -50 -15
		mu 0 4 23 22 37 36
		f 4 -20 12 -51 -14
		mu 0 4 22 21 38 37
		f 4 -19 11 -52 -13
		mu 0 4 21 20 39 38
		f 4 -18 10 -53 -12
		mu 0 4 20 19 40 39
		f 4 -17 9 -54 -11
		mu 0 4 19 18 41 40
		f 4 -16 8 -55 -10
		mu 0 4 18 17 34 41
		f 4 -23 71 -48 -9
		mu 0 4 17 24 35 34
		f 4 -22 14 -49 -72
		mu 0 4 24 23 36 35;
	setAttr ".cd" -type "dataPolyComponent" Index_Data Edge 0 ;
	setAttr ".cvd" -type "dataPolyComponent" Index_Data Vertex 0 ;
	setAttr ".pd[0]" -type "dataPolyComponent" Index_Data UV 2 
		17 0 
		34 0 ;
	setAttr ".hfd" -type "dataPolyComponent" Index_Data Face 0 ;
createNode transform -n "pCylinder23";
	rename -uid "71D3BC9C-450C-E9CA-FD6F-E4B37B2BE80C";
	setAttr ".t" -type "double3" 2.0679512201681787 3.8467435347069885 -9.6410582816507144 ;
	setAttr ".r" -type "double3" -6.4414175819889801 10.124307404405833 77.474370831290429 ;
	setAttr ".s" -type "double3" 0.49948122403174428 1.2783452524465269 0.49948122403174428 ;
createNode transform -n "transform28" -p "pCylinder23";
	rename -uid "307B3010-405C-1381-ECC0-A486FADD5F7A";
	setAttr ".v" no;
createNode mesh -n "pCylinderShape23" -p "transform28";
	rename -uid "45D41507-4B03-DD9E-BBAD-8790B9BDBA8A";
	setAttr -k off ".v";
	setAttr ".io" yes;
	setAttr ".iog[0].og[0].gcl" -type "componentList" 1 "f[0:32]";
	setAttr ".vir" yes;
	setAttr ".vif" yes;
	setAttr ".pv" -type "double2" 0.453125 0.58107143640518188 ;
	setAttr ".uvst[0].uvsn" -type "string" "map1";
	setAttr -s 51 ".uvst[0].uvsp[0:50]" -type "float2" 0.375 0.68843985
		 0.40625 0.68843985 0.4375 0.68843985 0.46875 0.68843985 0.5 0.68843985 0.53125 0.68843985
		 0.5625 0.68843985 0.59375 0.68843985 0.625 0.68843985 0.61048543 0.73326457 0.5 0.6875
		 0.38951457 0.73326457 0.34375 0.84375 0.38951457 0.95423543 0.5 1 0.61048543 0.95423543
		 0.65625 0.84375 0.5 0.56212407 0.59375 0.56212407 0.5625 0.56212407 0.53125 0.56212407
		 0.5 0.56212407 0.46875 0.56212407 0.4375 0.56212407 0.40625 0.56212407 0.625 0.63791353
		 0.375 0.63791353 0.59375 0.63791353 0.5625 0.63791353 0.53125 0.63791353 0.5 0.63791353
		 0.46875 0.63791353 0.4375 0.63791353 0.40625 0.63791353 0.5 0.6000188 0.40625 0.6000188
		 0.4375 0.6000188 0.46875 0.6000188 0.5 0.6000188 0.53125 0.6000188 0.5625 0.6000188
		 0.59375 0.6000188 0.625 0.51159775 0.375 0.51159775 0.40625 0.51159775 0.4375 0.51159775
		 0.46875 0.51159775 0.5 0.51159775 0.53125 0.51159775 0.5625 0.51159775 0.59375 0.51159775;
	setAttr ".cuvs" -type "string" "map1";
	setAttr ".dcc" -type "string" "Ambient+Diffuse";
	setAttr ".covm[0]"  0 1 1;
	setAttr ".cdvm[0]"  0 1 1;
	setAttr -s 40 ".vt[0:39]"  0.70710659 1 -0.70710754 0 1 -1 -0.70710564 1 -0.70710754
		 -0.99999905 1.000000238419 0 -0.70710564 1 0.70710373 0 1 1 0.70710659 1 0.70710373
		 1.000000953674 1 0 0.85146284 0.35850346 -0.85146332 1.20415068 0.35850346 0 0.85146284 0.35850346 0.85146332
		 9.5367432e-07 0.35850346 1.20415115 -0.85146189 0.35850334 0.85146332 -1.20414972 0.35850346 0
		 -0.85146189 0.35850334 -0.85146332 9.5367432e-07 0.35850346 -1.20414925 0.85146332 0.84401703 -0.85146332
		 1.20415163 0.84401703 0 0.85146332 0.84401703 0.85146332 1.4305115e-06 0.84401679 1.20414925
		 -0.85146236 0.84401655 0.85146332 -1.20414972 0.84401703 0 -0.85146236 0.84401655 -0.85146332
		 1.4305115e-06 0.84401679 -1.20414925 0.76396465 0.56662226 -0.7639637 9.5367432e-07 0.56662214 -1.080408096
		 -0.76396275 0.56662226 -0.7639637 -1.080407143 0.56662226 0 -0.76396275 0.56662226 0.76396179
		 9.5367432e-07 0.56662214 1.080404282 0.76396465 0.56662226 0.76396179 1.080408573 0.56662202 0
		 0.76396418 0.058398247 -0.7639637 9.5367432e-07 0.058398247 -1.080408096 -0.76396275 0.058398247 -0.7639637
		 -1.080407619 0.058398366 0 -0.76396275 0.058398247 0.76396179 9.5367432e-07 0.058398247 1.080404282
		 0.76396418 0.058398247 0.76396179 1.08040905 0.058398247 0;
	setAttr -s 72 ".ed[0:71]"  0 1 0 1 2 0 2 3 0 3 4 0 4 5 0 5 6 0 6 7 0
		 7 0 0 8 24 0 9 31 0 10 30 0 11 29 0 12 28 0 13 27 0 14 26 0 8 9 1 9 10 1 10 11 1
		 11 12 1 12 13 1 13 14 1 14 15 0 15 8 0 16 0 0 17 7 0 18 6 0 19 5 0 20 4 0 21 3 0
		 22 2 0 23 1 0 16 17 1 17 18 1 18 19 1 19 20 1 20 21 1 21 22 1 22 23 1 23 16 1 24 16 0
		 25 23 0 26 22 0 27 21 0 28 20 0 29 19 0 30 18 0 31 17 0 24 25 0 25 26 0 26 27 1 27 28 1
		 28 29 1 29 30 1 30 31 1 31 24 1 32 8 0 33 15 0 34 14 0 35 13 0 36 12 0 37 11 0 38 10 0
		 39 9 0 32 33 0 33 34 0 34 35 0 35 36 0 36 37 0 37 38 0 38 39 0 39 32 0 15 25 0;
	setAttr -s 33 -ch 136 ".fc[0:32]" -type "polyFaces" 
		f 8 0 1 2 3 4 5 6 7
		mu 0 8 15 14 13 12 11 10 9 16
		f 4 70 55 15 -63
		mu 0 4 50 42 17 18
		f 4 69 62 16 -62
		mu 0 4 49 50 18 19
		f 4 68 61 17 -61
		mu 0 4 48 49 19 20
		f 4 67 60 18 -60
		mu 0 4 47 48 20 21
		f 4 66 59 19 -59
		mu 0 4 46 47 21 22
		f 4 65 58 20 -58
		mu 0 4 45 46 22 23
		f 4 64 57 21 -57
		mu 0 4 44 45 23 24
		f 4 63 56 22 -56
		mu 0 4 43 44 24 17
		f 4 54 39 31 -47
		mu 0 4 41 34 25 27
		f 4 53 46 32 -46
		mu 0 4 40 41 27 28
		f 4 52 45 33 -45
		mu 0 4 39 40 28 29
		f 4 51 44 34 -44
		mu 0 4 38 39 29 30
		f 4 50 43 35 -43
		mu 0 4 37 38 30 31
		f 4 49 42 36 -42
		mu 0 4 36 37 31 32
		f 4 48 41 37 -41
		mu 0 4 35 36 32 33
		f 4 47 40 38 -40
		mu 0 4 34 35 33 26
		f 4 -32 23 -8 -25
		mu 0 4 27 25 8 7
		f 4 -33 24 -7 -26
		mu 0 4 28 27 7 6
		f 4 -34 25 -6 -27
		mu 0 4 29 28 6 5
		f 4 -35 26 -5 -28
		mu 0 4 30 29 5 4
		f 4 -36 27 -4 -29
		mu 0 4 31 30 4 3
		f 4 -37 28 -3 -30
		mu 0 4 32 31 3 2
		f 4 -38 29 -2 -31
		mu 0 4 33 32 2 1
		f 4 -39 30 -1 -24
		mu 0 4 26 33 1 0
		f 4 -21 13 -50 -15
		mu 0 4 23 22 37 36
		f 4 -20 12 -51 -14
		mu 0 4 22 21 38 37
		f 4 -19 11 -52 -13
		mu 0 4 21 20 39 38
		f 4 -18 10 -53 -12
		mu 0 4 20 19 40 39
		f 4 -17 9 -54 -11
		mu 0 4 19 18 41 40
		f 4 -16 8 -55 -10
		mu 0 4 18 17 34 41
		f 4 -23 71 -48 -9
		mu 0 4 17 24 35 34
		f 4 -22 14 -49 -72
		mu 0 4 24 23 36 35;
	setAttr ".cd" -type "dataPolyComponent" Index_Data Edge 0 ;
	setAttr ".cvd" -type "dataPolyComponent" Index_Data Vertex 0 ;
	setAttr ".pd[0]" -type "dataPolyComponent" Index_Data UV 2 
		17 0 
		34 0 ;
	setAttr ".hfd" -type "dataPolyComponent" Index_Data Face 0 ;
createNode transform -n "pCylinder24";
	rename -uid "75DB7B28-4A58-D1D4-1982-F09CB64340D0";
	setAttr ".rp" -type "double3" 1.9590339540175812 2.3201554476283679 -9.7157707359214385 ;
	setAttr ".sp" -type "double3" 1.9590339540175812 2.3201554476283679 -9.7157707359214385 ;
createNode transform -n "transform29" -p "pCylinder24";
	rename -uid "35DD252F-48C8-430D-0158-369F6DE19EFB";
	setAttr ".v" no;
createNode mesh -n "pCylinder24Shape" -p "transform29";
	rename -uid "0D123E2C-40BF-A5A1-296A-8E8C52EE4578";
	setAttr -k off ".v";
	setAttr ".io" yes;
	setAttr -s 2 ".iog[0].og";
	setAttr ".vir" yes;
	setAttr ".vif" yes;
	setAttr ".uvst[0].uvsn" -type "string" "map1";
	setAttr ".cuvs" -type "string" "map1";
	setAttr ".dcc" -type "string" "Ambient+Diffuse";
	setAttr ".covm[0]"  0 1 1;
	setAttr ".cdvm[0]"  0 1 1;
createNode transform -n "pCylinder25";
	rename -uid "A056493F-4F06-86FE-2300-DC85BD4EC278";
	setAttr ".t" -type "double3" -2.0822010855313944 0 2.5499608945771662e-16 ;
	setAttr ".s" -type "double3" -1 1 1 ;
	setAttr ".rp" -type "double3" 1.9590339540175812 2.3201554476283679 -9.7157707359214385 ;
	setAttr ".sp" -type "double3" 1.9590339540175812 2.3201554476283679 -9.7157707359214385 ;
createNode transform -n "transform30" -p "pCylinder25";
	rename -uid "F8DCF5E9-40BD-FDA1-FF5D-AF840C222D06";
	setAttr ".v" no;
createNode mesh -n "pCylinder25Shape" -p "transform30";
	rename -uid "290A01AB-4D38-9DD1-6C49-17B5A71840F6";
	setAttr -k off ".v";
	setAttr ".io" yes;
	setAttr ".iog[0].og[0].gcl" -type "componentList" 1 "f[0:164]";
	setAttr ".vir" yes;
	setAttr ".vif" yes;
	setAttr ".uvst[0].uvsn" -type "string" "map1";
	setAttr -s 250 ".uvst[0].uvsp[0:249]" -type "float2" 0.375 0.68843985
		 0.40625 0.68843985 0.4375 0.68843985 0.46875 0.68843985 0.5 0.68843985 0.53125 0.68843985
		 0.5625 0.68843985 0.59375 0.68843985 0.625 0.68843985 0.61048543 0.73326457 0.5 0.6875
		 0.38951457 0.73326457 0.34375 0.84375 0.38951457 0.95423543 0.5 1 0.61048543 0.95423543
		 0.65625 0.84375 0.5 0.56212407 0.59375 0.56212407 0.5625 0.56212407 0.53125 0.56212407
		 0.5 0.56212407 0.46875 0.56212407 0.4375 0.56212407 0.40625 0.56212407 0.625 0.63791353
		 0.375 0.63791353 0.59375 0.63791353 0.5625 0.63791353 0.53125 0.63791353 0.5 0.63791353
		 0.46875 0.63791353 0.4375 0.63791353 0.40625 0.63791353 0.5 0.6000188 0.40625 0.6000188
		 0.4375 0.6000188 0.46875 0.6000188 0.5 0.6000188 0.53125 0.6000188 0.5625 0.6000188
		 0.59375 0.6000188 0.625 0.51159775 0.375 0.51159775 0.40625 0.51159775 0.4375 0.51159775
		 0.46875 0.51159775 0.5 0.51159775 0.53125 0.51159775 0.5625 0.51159775 0.59375 0.51159775
		 0.61048543 0.95423543 0.5 1 0.38951457 0.95423543 0.34375 0.84375 0.38951457 0.73326457
		 0.5 0.6875 0.61048543 0.73326457 0.65625 0.84375 0.59375 0.51159775 0.625 0.51159775
		 0.5 0.56212407 0.59375 0.56212407 0.5625 0.51159775 0.5625 0.56212407 0.53125 0.51159775
		 0.53125 0.56212407 0.5 0.51159775 0.5 0.56212407 0.46875 0.51159775 0.46875 0.56212407
		 0.4375 0.51159775 0.4375 0.56212407 0.40625 0.51159775 0.40625 0.56212407 0.375 0.51159775
		 0.59375 0.6000188 0.5 0.6000188 0.625 0.63791353 0.59375 0.63791353 0.5625 0.6000188
		 0.5625 0.63791353 0.53125 0.6000188 0.53125 0.63791353 0.5 0.6000188 0.5 0.63791353
		 0.46875 0.6000188 0.46875 0.63791353 0.4375 0.6000188 0.4375 0.63791353 0.40625 0.6000188
		 0.40625 0.63791353 0.375 0.63791353 0.625 0.68843985 0.59375 0.68843985 0.5625 0.68843985
		 0.53125 0.68843985 0.5 0.68843985 0.46875 0.68843985 0.4375 0.68843985 0.40625 0.68843985
		 0.375 0.68843985 0.61048543 0.95423543 0.5 1 0.38951457 0.95423543 0.34375 0.84375
		 0.38951457 0.73326457 0.5 0.6875 0.61048543 0.73326457 0.65625 0.84375 0.59375 0.51159775
		 0.625 0.51159775 0.5 0.56212407 0.59375 0.56212407 0.5625 0.51159775 0.5625 0.56212407
		 0.53125 0.51159775 0.53125 0.56212407 0.5 0.51159775 0.5 0.56212407 0.46875 0.51159775
		 0.46875 0.56212407 0.4375 0.51159775 0.4375 0.56212407 0.40625 0.51159775 0.40625
		 0.56212407 0.375 0.51159775 0.59375 0.6000188 0.5 0.6000188 0.625 0.63791353 0.59375
		 0.63791353 0.5625 0.6000188 0.5625 0.63791353 0.53125 0.6000188 0.53125 0.63791353
		 0.5 0.6000188 0.5 0.63791353 0.46875 0.6000188 0.46875 0.63791353 0.4375 0.6000188
		 0.4375 0.63791353 0.40625 0.6000188 0.40625 0.63791353 0.375 0.63791353 0.625 0.68843985
		 0.59375 0.68843985 0.5625 0.68843985 0.53125 0.68843985 0.5 0.68843985 0.46875 0.68843985
		 0.4375 0.68843985 0.40625 0.68843985 0.375 0.68843985 0.375 0.3125 0.40625 0.3125
		 0.40625003 0.38768798 0.375 0.38768798 0.4375 0.3125 0.4375 0.38768798 0.46875 0.3125
		 0.46875 0.38768798 0.5 0.3125 0.5 0.38768798 0.53125 0.3125 0.53125 0.38768798 0.5625
		 0.3125 0.5625 0.38768798 0.59375 0.3125 0.59375 0.38768798 0.625 0.3125 0.625 0.38768798
		 0.61048543 0.04576458 0.65625 0.15625 0.61048543 0.26673543 0.5 0.3125 0.38951457
		 0.26673543 0.34375 0.15625 0.38951457 0.04576458 0.5 1.4901161e-08 0.61048543 0.95423543
		 0.5 1 0.38951457 0.95423543 0.34375 0.84375 0.38951457 0.73326457 0.5 0.6875 0.61048543
		 0.73326457 0.65625 0.84375 0.59375 0.42377824 0.625 0.42377824 0.625 0.47791356 0.59375
		 0.47791356 0.5625 0.42377824 0.5625 0.47791356 0.53125 0.42377824 0.53125 0.47791356
		 0.5 0.42377824 0.5 0.47791356 0.46875 0.42377824 0.46875 0.47791356 0.4375 0.42377824
		 0.4375 0.47791356 0.40625003 0.42377824 0.40625 0.47791356 0.375 0.42377824 0.375
		 0.47791356 0.59375 0.51159775 0.625 0.51159775 0.625 0.56212407 0.59375 0.56212407
		 0.5625 0.51159775 0.5625 0.56212407 0.53125 0.51159775 0.53125 0.56212407 0.5 0.51159775
		 0.5 0.56212407 0.46875 0.51159775 0.46875 0.56212407 0.4375 0.51159775 0.4375 0.56212407
		 0.40625 0.51159775 0.40625 0.56212407 0.375 0.51159775 0.375 0.56212407 0.59375 0.6000188
		 0.625 0.6000188 0.625 0.63791353 0.59375 0.63791353 0.5625 0.6000188 0.5625 0.63791353
		 0.53125 0.6000188 0.53125 0.63791353 0.5 0.6000188 0.5 0.63791353 0.46875 0.6000188
		 0.46875 0.63791353 0.4375 0.6000188 0.4375 0.63791353 0.40625 0.6000188 0.40625 0.63791353
		 0.375 0.6000188 0.375 0.63791353 0.625 0.68843985 0.59375 0.68843985 0.5625 0.68843985
		 0.53125 0.68843985 0.5 0.68843985 0.46875 0.68843985 0.4375 0.68843985 0.40625 0.68843985
		 0.375 0.68843985;
	setAttr ".cuvs" -type "string" "map1";
	setAttr ".dcc" -type "string" "Ambient+Diffuse";
	setAttr ".covm[0]"  0 1 1;
	setAttr ".cdvm[0]"  0 1 1;
	setAttr -s 192 ".vt";
	setAttr ".vt[0:165]"  0.92314756 4.36821985 -10.18981552 0.85822225 4.00030326843 -10.27083874
		 0.77233756 3.68939734 -10.065647125 0.71580327 3.61762619 -9.69443798 0.72173715 3.82703257 -9.37466335
		 0.78666234 4.19494915 -9.29363918 0.87254715 4.50585508 -9.4988327 0.92908132 4.57762718 -9.87003994
		 1.74269629 4.26252174 -10.18245602 1.74984121 4.51467896 -9.79739761 1.68176556 4.42825556 -9.35040665
		 1.57834744 4.053877831 -9.10332394 1.50016785 3.61085057 -9.20088768 1.4930228 3.35869336 -9.58594608
		 1.56109858 3.44511676 -10.03293705 1.66451645 3.81949496 -10.28001881 1.13798487 4.38432884 -10.25100136
		 1.1451298 4.63648653 -9.86594296 1.077054143 4.55006266 -9.41895199 0.97363639 4.17568493 -9.17187023
		 0.89545667 3.73265719 -9.26943302 0.88831127 3.48050022 -9.65449142 0.9563874 3.56692338 -10.10148239
		 1.059805393 3.94130206 -10.34856415 1.47102118 4.28125143 -10.16140366 1.40087533 3.88375115 -10.24894142
		 1.30808473 3.54784536 -10.02725029 1.24700475 3.47030306 -9.62619305 1.25341547 3.69654775 -9.28070641
		 1.32356143 4.094048023 -9.19316959 1.41635191 4.42995358 -9.41485977 1.47743201 4.50749588 -9.81591511
		 2.10401845 4.1537466 -10.089652061 2.033872843 3.75624657 -10.17718983 1.94108212 3.42034101 -9.9554987
		 1.88000202 3.34279823 -9.55444145 1.88641298 3.56904316 -9.20895481 1.95655894 3.9665432 -9.121418
		 2.049349308 4.30244923 -9.34310818 2.11042929 4.37999153 -9.74416351 1.92651725 4.24881649 -10.043384552
		 1.64036047 4.021528721 -10.15562248 1.36940706 3.81968498 -9.97677803 1.27237701 3.76152182 -9.61161327
		 1.40611017 3.88111019 -9.27403927 1.69226658 4.10839748 -9.16179943 1.96322036 4.3102417 -9.34064579
		 2.060250759 4.36840534 -9.70580959 2.48199415 3.63888931 -10.09155941 2.64302897 3.78289223 -9.68506813
		 2.52619028 3.71285462 -9.24535465 2.19992137 3.46980405 -9.029997826 1.85534561 3.19611573 -9.16515064
		 1.69431078 3.052112818 -9.57164192 1.81114948 3.12215018 -10.011354446 2.13741875 3.36520123 -10.22671127
		 2.10178852 4.12891674 -10.11453438 2.26282358 4.27292013 -9.7080431 2.14598465 4.20288277 -9.26832962
		 1.81971586 3.95983171 -9.052973747 1.47513986 3.68614268 -9.18812561 1.31410503 3.54214048 -9.59461689
		 1.43094373 3.61217737 -10.034329414 1.75721323 3.8552289 -10.24968624 2.28681827 3.82619286 -10.053807259
		 1.97765231 3.58062959 -10.17507076 1.68491149 3.3625555 -9.9818449 1.58007956 3.29971528 -9.58731747
		 1.72456586 3.42891979 -9.22259998 2.033731937 3.67448282 -9.10133743 2.32647276 3.89255714 -9.29456329
		 2.43130469 3.95539713 -9.68908882 2.68480849 3.31324363 -10.0297575 2.37564254 3.067680359 -10.151021
		 2.082901955 2.84960628 -9.95779514 1.97806966 2.78676605 -9.56326866 2.12255621 2.9159708 -9.19855022
		 2.43172216 3.16153383 -9.077287674 2.72446275 3.37960792 -9.27051353 2.82929492 3.44244838 -9.66503906
		 2.69393206 3.42361212 -9.96665478 2.35278583 3.33217955 -10.11294937 2.011640072 3.24074721 -9.96665478
		 1.87033236 3.2028749 -9.61346817 2.011640072 3.24074721 -9.26028347 2.35278583 3.33217955 -9.11398697
		 2.69393206 3.42361212 -9.26028347 2.83524013 3.46148491 -9.61346817 2.97587204 2.6501801 -10.038758278
		 3.14602757 2.69578433 -9.61346817 2.97587204 2.6501801 -9.18817806 2.56508112 2.5400815 -9.01201725
		 2.15428972 2.4299829 -9.18817806 1.98413396 2.38437867 -9.61346817 2.15428972 2.4299829 -10.038758278
		 2.56508112 2.5400815 -10.21491814 2.81519794 3.24967575 -10.038758278 2.98535395 3.29528022 -9.61346817
		 2.81519794 3.24967575 -9.18817806 2.40440702 3.13957715 -9.012018204 1.99361515 3.029478073 -9.18817806
		 1.82345963 2.98387432 -9.61346817 1.99361515 3.029478073 -10.038758278 2.40440702 3.13957715 -10.21491814
		 2.864784 2.89584398 -9.99505329 2.496207 2.79705954 -10.15311146 2.12762976 2.69827509 -9.99505329
		 1.97495985 2.65735722 -9.61346817 2.12762976 2.69827509 -9.231884 2.496207 2.79705954 -9.07382679
		 2.864784 2.89584398 -9.231884 3.017453671 2.93676162 -9.61346817 3.032973766 2.26830626 -9.99505329
		 2.66439676 2.16952181 -10.15311146 2.29581976 2.070737362 -9.99505329 2.14314961 2.029819489 -9.61346817
		 2.29581976 2.070737362 -9.231884 2.66439676 2.16952181 -9.07382679 3.032973766 2.26830626 -9.231884
		 3.18564367 2.30922413 -9.61346817 3.018855572 -0.15250039 -9.96665478 2.66566896 -0.15250039 -10.11294937
		 2.31248236 -0.15250039 -9.96665478 2.16618776 -0.15250039 -9.61346817 2.31248236 -0.15250039 -9.26028156
		 2.66566896 -0.15250039 -9.11398697 3.018855572 -0.15250039 -9.26028156 3.16515017 -0.15250039 -9.61346817
		 3.018855572 2.40419006 -9.96665478 2.66566896 2.40419006 -10.11294937 2.31248236 2.40419006 -9.96665478
		 2.16618776 2.40419006 -9.61346817 2.31248236 2.40419006 -9.26028156 2.66566896 2.40419006 -9.11398697
		 3.018855572 2.40419006 -9.26028156 3.16515017 2.40419006 -9.61346817 3.090958595 0.15564674 -10.038758278
		 3.26711941 0.15564674 -9.61346817 3.090958595 0.15564674 -9.18817806 2.66566896 0.15564674 -9.01201725
		 2.24037933 0.15564674 -9.18817806 2.064218521 0.15564674 -9.61346817 2.24037933 0.15564674 -10.038758278
		 2.66566896 0.15564674 -10.21491814 3.090958595 0.89452028 -10.038758278 3.26711941 0.89452028 -9.61346817
		 3.090958595 0.89452028 -9.18817806 2.66566896 0.89452028 -9.012018204 2.24037933 0.89452028 -9.18817806
		 2.064218521 0.89452028 -9.61346817 2.24037933 0.89452028 -10.038758278 2.66566896 0.89452028 -10.21491814
		 3.090958595 1.58413553 -10.038758278 3.26711941 1.58413553 -9.61346817 3.090958595 1.58413553 -9.18817806
		 2.66566896 1.58413553 -9.01201725 2.24037933 1.58413553 -9.18817806 2.064218521 1.58413553 -9.61346817
		 2.24037933 1.58413553 -10.038758278 2.66566896 1.58413553 -10.21491814 3.090958595 2.2047894 -10.038758278
		 3.26711941 2.2047894 -9.61346817 3.090958595 2.2047894 -9.18817806 2.66566896 2.2047894 -9.012018204
		 2.24037933 2.2047894 -9.18817806 2.064218521 2.2047894 -9.61346817;
	setAttr ".vt[166:191]" 2.24037933 2.2047894 -10.038758278 2.66566896 2.2047894 -10.21491814
		 3.047254562 1.85018325 -9.99505329 2.66566896 1.85018325 -10.15311146 2.28408337 1.85018325 -9.99505329
		 2.12602544 1.85018325 -9.61346817 2.28408337 1.85018325 -9.2318821 2.66566896 1.85018325 -9.073824883
		 3.047254562 1.85018325 -9.2318821 3.20531273 1.85018325 -9.61346817 3.047254562 1.20049751 -9.99505329
		 2.66566896 1.20049751 -10.15311146 2.28408337 1.20049751 -9.99505329 2.12602544 1.20049751 -9.61346817
		 2.28408337 1.20049751 -9.2318821 2.66566896 1.20049751 -9.073824883 3.047254562 1.20049751 -9.2318821
		 3.20531273 1.20049751 -9.61346817 3.047254562 0.55523139 -9.99505329 2.66566896 0.55523139 -10.15311146
		 2.28408337 0.55523139 -9.99505329 2.12602544 0.55523139 -9.61346817 2.28408337 0.55523139 -9.2318821
		 2.66566896 0.55523139 -9.073824883 3.047254562 0.55523139 -9.2318821 3.20531273 0.55523139 -9.61346817;
	setAttr -s 352 ".ed";
	setAttr ".ed[0:165]"  0 1 0 1 2 0 2 3 0 3 4 0 4 5 0 5 6 0 6 7 0 7 0 0 8 24 0
		 9 31 0 10 30 0 11 29 0 12 28 0 13 27 0 14 26 0 8 9 1 9 10 1 10 11 1 11 12 1 12 13 1
		 13 14 1 14 15 0 15 8 0 16 0 0 17 7 0 18 6 0 19 5 0 20 4 0 21 3 0 22 2 0 23 1 0 16 17 1
		 17 18 1 18 19 1 19 20 1 20 21 1 21 22 1 22 23 1 23 16 1 24 16 0 25 23 0 26 22 0 27 21 0
		 28 20 0 29 19 0 30 18 0 31 17 0 24 25 0 25 26 0 26 27 1 27 28 1 28 29 1 29 30 1 30 31 1
		 31 24 1 32 8 0 33 15 0 34 14 0 35 13 0 36 12 0 37 11 0 38 10 0 39 9 0 32 33 0 33 34 0
		 34 35 0 35 36 0 36 37 0 37 38 0 38 39 0 39 32 0 15 25 0 40 41 0 41 42 0 42 43 0 43 44 0
		 44 45 0 45 46 0 46 47 0 47 40 0 48 64 0 49 71 0 50 70 0 51 69 0 52 68 0 53 67 0 54 66 0
		 48 49 1 49 50 1 50 51 1 51 52 1 52 53 1 53 54 1 54 55 0 55 48 0 56 40 0 57 47 0 58 46 0
		 59 45 0 60 44 0 61 43 0 62 42 0 63 41 0 56 57 1 57 58 1 58 59 1 59 60 1 60 61 1 61 62 1
		 62 63 1 63 56 1 64 56 0 65 63 0 66 62 0 67 61 0 68 60 0 69 59 0 70 58 0 71 57 0 64 65 0
		 65 66 0 66 67 1 67 68 1 68 69 1 69 70 1 70 71 1 71 64 1 72 48 0 73 55 0 74 54 0 75 53 0
		 76 52 0 77 51 0 78 50 0 79 49 0 72 73 0 73 74 0 74 75 0 75 76 0 76 77 0 77 78 0 78 79 0
		 79 72 0 55 65 0 80 81 0 81 82 0 82 83 0 83 84 0 84 85 0 85 86 0 86 87 0 87 80 0 88 104 0
		 89 111 0 90 110 0 91 109 0 92 108 0 93 107 0 94 106 0 88 89 1 89 90 1 90 91 1 91 92 1
		 92 93 1 93 94 1 94 95 0;
	setAttr ".ed[166:331]" 95 88 0 96 80 0 97 87 0 98 86 0 99 85 0 100 84 0 101 83 0
		 102 82 0 103 81 0 96 97 1 97 98 1 98 99 1 99 100 1 100 101 1 101 102 1 102 103 1
		 103 96 1 104 96 0 105 103 0 106 102 0 107 101 0 108 100 0 109 99 0 110 98 0 111 97 0
		 104 105 0 105 106 0 106 107 1 107 108 1 108 109 1 109 110 1 110 111 1 111 104 1 112 88 0
		 113 95 0 114 94 0 115 93 0 116 92 0 117 91 0 118 90 0 119 89 0 112 113 0 113 114 0
		 114 115 0 115 116 0 116 117 0 117 118 0 118 119 0 119 112 0 95 105 0 120 121 0 121 122 0
		 122 123 0 123 124 0 124 125 0 125 126 0 126 127 0 127 120 0 128 129 0 129 130 0 130 131 0
		 131 132 0 132 133 0 133 134 0 134 135 0 135 128 0 120 136 0 121 143 0 122 142 0 123 141 0
		 124 140 0 125 139 0 126 138 0 127 137 0 136 184 0 137 191 0 138 190 0 139 189 0 140 188 0
		 141 187 0 142 186 0 143 185 0 136 137 1 137 138 1 138 139 1 139 140 1 140 141 1 141 142 1
		 142 143 1 143 136 1 144 176 0 145 183 0 146 182 0 147 181 0 148 180 0 149 179 0 150 178 0
		 151 177 0 144 145 1 145 146 1 146 147 1 147 148 1 148 149 1 149 150 1 150 151 1 151 144 1
		 152 168 0 153 175 0 154 174 0 155 173 0 156 172 0 157 171 0 158 170 0 159 169 0 152 153 1
		 153 154 1 154 155 1 155 156 1 156 157 1 157 158 1 158 159 1 159 152 1 160 128 0 161 135 0
		 162 134 0 163 133 0 164 132 0 165 131 0 166 130 0 167 129 0 160 161 1 161 162 1 162 163 1
		 163 164 1 164 165 1 165 166 1 166 167 1 167 160 1 168 160 0 169 167 0 170 166 0 171 165 0
		 172 164 0 173 163 0 174 162 0 175 161 0 168 169 1 169 170 1 170 171 1 171 172 1 172 173 1
		 173 174 1 174 175 1 175 168 1 176 152 0 177 159 0 178 158 0 179 157 0 180 156 0 181 155 0
		 182 154 0 183 153 0 176 177 1 177 178 1 178 179 1 179 180 1;
	setAttr ".ed[332:351]" 180 181 1 181 182 1 182 183 1 183 176 1 184 144 0 185 151 0
		 186 150 0 187 149 0 188 148 0 189 147 0 190 146 0 191 145 0 184 185 1 185 186 1 186 187 1
		 187 188 1 188 189 1 189 190 1 190 191 1 191 184 1;
	setAttr -s 165 -ch 680 ".fc[0:164]" -type "polyFaces" 
		f 8 0 1 2 3 4 5 6 7
		mu 0 8 15 14 13 12 11 10 9 16
		f 4 70 55 15 -63
		mu 0 4 50 42 17 18
		f 4 69 62 16 -62
		mu 0 4 49 50 18 19
		f 4 68 61 17 -61
		mu 0 4 48 49 19 20
		f 4 67 60 18 -60
		mu 0 4 47 48 20 21
		f 4 66 59 19 -59
		mu 0 4 46 47 21 22
		f 4 65 58 20 -58
		mu 0 4 45 46 22 23
		f 4 64 57 21 -57
		mu 0 4 44 45 23 24
		f 4 63 56 22 -56
		mu 0 4 43 44 24 17
		f 4 54 39 31 -47
		mu 0 4 41 34 25 27
		f 4 53 46 32 -46
		mu 0 4 40 41 27 28
		f 4 52 45 33 -45
		mu 0 4 39 40 28 29
		f 4 51 44 34 -44
		mu 0 4 38 39 29 30
		f 4 50 43 35 -43
		mu 0 4 37 38 30 31
		f 4 49 42 36 -42
		mu 0 4 36 37 31 32
		f 4 48 41 37 -41
		mu 0 4 35 36 32 33
		f 4 47 40 38 -40
		mu 0 4 34 35 33 26
		f 4 -32 23 -8 -25
		mu 0 4 27 25 8 7
		f 4 -33 24 -7 -26
		mu 0 4 28 27 7 6
		f 4 -34 25 -6 -27
		mu 0 4 29 28 6 5
		f 4 -35 26 -5 -28
		mu 0 4 30 29 5 4
		f 4 -36 27 -4 -29
		mu 0 4 31 30 4 3
		f 4 -37 28 -3 -30
		mu 0 4 32 31 3 2
		f 4 -38 29 -2 -31
		mu 0 4 33 32 2 1
		f 4 -39 30 -1 -24
		mu 0 4 26 33 1 0
		f 4 -21 13 -50 -15
		mu 0 4 23 22 37 36
		f 4 -20 12 -51 -14
		mu 0 4 22 21 38 37
		f 4 -19 11 -52 -13
		mu 0 4 21 20 39 38
		f 4 -18 10 -53 -12
		mu 0 4 20 19 40 39
		f 4 -17 9 -54 -11
		mu 0 4 19 18 41 40
		f 4 -16 8 -55 -10
		mu 0 4 18 17 34 41
		f 4 -23 71 -48 -9
		mu 0 4 17 24 35 34
		f 4 -22 14 -49 -72
		mu 0 4 24 23 36 35
		f 8 72 73 74 75 76 77 78 79
		mu 0 8 51 52 53 54 55 56 57 58
		f 4 142 127 87 -135
		mu 0 4 59 60 61 62
		f 4 141 134 88 -134
		mu 0 4 63 59 62 64
		f 4 140 133 89 -133
		mu 0 4 65 63 64 66
		f 4 139 132 90 -132
		mu 0 4 67 65 66 68
		f 4 138 131 91 -131
		mu 0 4 69 67 68 70
		f 4 137 130 92 -130
		mu 0 4 71 69 70 72
		f 4 136 129 93 -129
		mu 0 4 73 71 72 74
		f 4 135 128 94 -128
		mu 0 4 75 73 74 61
		f 4 126 111 103 -119
		mu 0 4 76 77 78 79
		f 4 125 118 104 -118
		mu 0 4 80 76 79 81
		f 4 124 117 105 -117
		mu 0 4 82 80 81 83
		f 4 123 116 106 -116
		mu 0 4 84 82 83 85
		f 4 122 115 107 -115
		mu 0 4 86 84 85 87
		f 4 121 114 108 -114
		mu 0 4 88 86 87 89
		f 4 120 113 109 -113
		mu 0 4 90 88 89 91
		f 4 119 112 110 -112
		mu 0 4 77 90 91 92
		f 4 -104 95 -80 -97
		mu 0 4 79 78 93 94
		f 4 -105 96 -79 -98
		mu 0 4 81 79 94 95
		f 4 -106 97 -78 -99
		mu 0 4 83 81 95 96
		f 4 -107 98 -77 -100
		mu 0 4 85 83 96 97
		f 4 -108 99 -76 -101
		mu 0 4 87 85 97 98
		f 4 -109 100 -75 -102
		mu 0 4 89 87 98 99
		f 4 -110 101 -74 -103
		mu 0 4 91 89 99 100
		f 4 -111 102 -73 -96
		mu 0 4 92 91 100 101
		f 4 -93 85 -122 -87
		mu 0 4 72 70 86 88
		f 4 -92 84 -123 -86
		mu 0 4 70 68 84 86
		f 4 -91 83 -124 -85
		mu 0 4 68 66 82 84
		f 4 -90 82 -125 -84
		mu 0 4 66 64 80 82
		f 4 -89 81 -126 -83
		mu 0 4 64 62 76 80
		f 4 -88 80 -127 -82
		mu 0 4 62 61 77 76
		f 4 -95 143 -120 -81
		mu 0 4 61 74 90 77
		f 4 -94 86 -121 -144
		mu 0 4 74 72 88 90
		f 8 144 145 146 147 148 149 150 151
		mu 0 8 102 103 104 105 106 107 108 109
		f 4 214 199 159 -207
		mu 0 4 110 111 112 113
		f 4 213 206 160 -206
		mu 0 4 114 110 113 115
		f 4 212 205 161 -205
		mu 0 4 116 114 115 117
		f 4 211 204 162 -204
		mu 0 4 118 116 117 119
		f 4 210 203 163 -203
		mu 0 4 120 118 119 121
		f 4 209 202 164 -202
		mu 0 4 122 120 121 123
		f 4 208 201 165 -201
		mu 0 4 124 122 123 125
		f 4 207 200 166 -200
		mu 0 4 126 124 125 112
		f 4 198 183 175 -191
		mu 0 4 127 128 129 130
		f 4 197 190 176 -190
		mu 0 4 131 127 130 132
		f 4 196 189 177 -189
		mu 0 4 133 131 132 134
		f 4 195 188 178 -188
		mu 0 4 135 133 134 136
		f 4 194 187 179 -187
		mu 0 4 137 135 136 138
		f 4 193 186 180 -186
		mu 0 4 139 137 138 140
		f 4 192 185 181 -185
		mu 0 4 141 139 140 142
		f 4 191 184 182 -184
		mu 0 4 128 141 142 143
		f 4 -176 167 -152 -169
		mu 0 4 130 129 144 145
		f 4 -177 168 -151 -170
		mu 0 4 132 130 145 146
		f 4 -178 169 -150 -171
		mu 0 4 134 132 146 147
		f 4 -179 170 -149 -172
		mu 0 4 136 134 147 148
		f 4 -180 171 -148 -173
		mu 0 4 138 136 148 149
		f 4 -181 172 -147 -174
		mu 0 4 140 138 149 150
		f 4 -182 173 -146 -175
		mu 0 4 142 140 150 151
		f 4 -183 174 -145 -168
		mu 0 4 143 142 151 152
		f 4 -165 157 -194 -159
		mu 0 4 123 121 137 139
		f 4 -164 156 -195 -158
		mu 0 4 121 119 135 137
		f 4 -163 155 -196 -157
		mu 0 4 119 117 133 135
		f 4 -162 154 -197 -156
		mu 0 4 117 115 131 133
		f 4 -161 153 -198 -155
		mu 0 4 115 113 127 131
		f 4 -160 152 -199 -154
		mu 0 4 113 112 128 127
		f 4 -167 215 -192 -153
		mu 0 4 112 125 141 128
		f 4 -166 158 -193 -216
		mu 0 4 125 123 139 141
		f 4 216 233 255 -233
		mu 0 4 153 154 155 156
		f 4 217 234 254 -234
		mu 0 4 154 157 158 155
		f 4 218 235 253 -235
		mu 0 4 157 159 160 158
		f 4 219 236 252 -236
		mu 0 4 159 161 162 160
		f 4 220 237 251 -237
		mu 0 4 161 163 164 162
		f 4 221 238 250 -238
		mu 0 4 163 165 166 164
		f 4 222 239 249 -239
		mu 0 4 165 167 168 166
		f 4 223 232 248 -240
		mu 0 4 167 169 170 168
		f 8 -224 -223 -222 -221 -220 -219 -218 -217
		mu 0 8 171 172 173 174 175 176 177 178
		f 8 224 225 226 227 228 229 230 231
		mu 0 8 179 180 181 182 183 184 185 186
		f 4 351 336 264 -344
		mu 0 4 187 188 189 190
		f 4 350 343 265 -343
		mu 0 4 191 187 190 192
		f 4 349 342 266 -342
		mu 0 4 193 191 192 194
		f 4 348 341 267 -341
		mu 0 4 195 193 194 196
		f 4 347 340 268 -340
		mu 0 4 197 195 196 198
		f 4 346 339 269 -339
		mu 0 4 199 197 198 200
		f 4 345 338 270 -338
		mu 0 4 201 199 200 202
		f 4 344 337 271 -337
		mu 0 4 203 201 202 204
		f 4 335 320 280 -328
		mu 0 4 205 206 207 208
		f 4 334 327 281 -327
		mu 0 4 209 205 208 210
		f 4 333 326 282 -326
		mu 0 4 211 209 210 212
		f 4 332 325 283 -325
		mu 0 4 213 211 212 214
		f 4 331 324 284 -324
		mu 0 4 215 213 214 216
		f 4 330 323 285 -323
		mu 0 4 217 215 216 218
		f 4 329 322 286 -322
		mu 0 4 219 217 218 220
		f 4 328 321 287 -321
		mu 0 4 221 219 220 222
		f 4 319 304 296 -312
		mu 0 4 223 224 225 226
		f 4 318 311 297 -311
		mu 0 4 227 223 226 228
		f 4 317 310 298 -310
		mu 0 4 229 227 228 230
		f 4 316 309 299 -309
		mu 0 4 231 229 230 232
		f 4 315 308 300 -308
		mu 0 4 233 231 232 234
		f 4 314 307 301 -307
		mu 0 4 235 233 234 236
		f 4 313 306 302 -306
		mu 0 4 237 235 236 238
		f 4 312 305 303 -305
		mu 0 4 239 237 238 240
		f 4 -297 288 -232 -290
		mu 0 4 226 225 241 242
		f 4 -298 289 -231 -291
		mu 0 4 228 226 242 243
		f 4 -299 290 -230 -292
		mu 0 4 230 228 243 244
		f 4 -300 291 -229 -293
		mu 0 4 232 230 244 245
		f 4 -301 292 -228 -294
		mu 0 4 234 232 245 246
		f 4 -302 293 -227 -295
		mu 0 4 236 234 246 247
		f 4 -303 294 -226 -296
		mu 0 4 238 236 247 248
		f 4 -304 295 -225 -289
		mu 0 4 240 238 248 249
		f 4 -288 279 -313 -273
		mu 0 4 222 220 237 239
		f 4 -287 278 -314 -280
		mu 0 4 220 218 235 237
		f 4 -286 277 -315 -279
		mu 0 4 218 216 233 235
		f 4 -285 276 -316 -278
		mu 0 4 216 214 231 233
		f 4 -284 275 -317 -277
		mu 0 4 214 212 229 231
		f 4 -283 274 -318 -276
		mu 0 4 212 210 227 229
		f 4 -282 273 -319 -275
		mu 0 4 210 208 223 227
		f 4 -281 272 -320 -274
		mu 0 4 208 207 224 223
		f 4 -272 263 -329 -257
		mu 0 4 204 202 219 221
		f 4 -271 262 -330 -264
		mu 0 4 202 200 217 219
		f 4 -270 261 -331 -263
		mu 0 4 200 198 215 217
		f 4 -269 260 -332 -262
		mu 0 4 198 196 213 215
		f 4 -268 259 -333 -261
		mu 0 4 196 194 211 213
		f 4 -267 258 -334 -260
		mu 0 4 194 192 209 211
		f 4 -266 257 -335 -259
		mu 0 4 192 190 205 209
		f 4 -265 256 -336 -258
		mu 0 4 190 189 206 205
		f 4 -256 247 -345 -241
		mu 0 4 156 155 201 203
		f 4 -255 246 -346 -248
		mu 0 4 155 158 199 201
		f 4 -254 245 -347 -247
		mu 0 4 158 160 197 199
		f 4 -253 244 -348 -246
		mu 0 4 160 162 195 197
		f 4 -252 243 -349 -245
		mu 0 4 162 164 193 195
		f 4 -251 242 -350 -244
		mu 0 4 164 166 191 193
		f 4 -250 241 -351 -243
		mu 0 4 166 168 187 191
		f 4 -249 240 -352 -242
		mu 0 4 168 170 188 187;
	setAttr ".cd" -type "dataPolyComponent" Index_Data Edge 0 ;
	setAttr ".cvd" -type "dataPolyComponent" Index_Data Vertex 0 ;
	setAttr ".pd[0]" -type "dataPolyComponent" Index_Data UV 0 ;
	setAttr ".hfd" -type "dataPolyComponent" Index_Data Face 0 ;
createNode transform -n "pCylinder26";
	rename -uid "A5F97B37-4288-B92B-9AC6-61B59D13AAB9";
	setAttr ".rp" -type "double3" 0.91793341125188399 2.2419930696487427 -9.680290699005127 ;
	setAttr ".sp" -type "double3" 0.91793341125188399 2.2419930696487427 -9.680290699005127 ;
createNode mesh -n "pCylinder26Shape" -p "pCylinder26";
	rename -uid "390D9D00-480B-DDC1-8CC8-9E9F83ACE5C1";
	setAttr -k off ".v";
	setAttr -s 2 ".iog[0].og";
	setAttr ".vir" yes;
	setAttr ".vif" yes;
	setAttr ".pv" -type "double2" 0.59375 0.51159775257110596 ;
	setAttr ".uvst[0].uvsn" -type "string" "map1";
	setAttr ".cuvs" -type "string" "map1";
	setAttr ".dcc" -type "string" "Ambient+Diffuse";
	setAttr ".covm[0]"  0 1 1;
	setAttr ".cdvm[0]"  0 1 1;
	setAttr -s 6 ".pt";
	setAttr ".pt[32]" -type "float3" 0 -0.041621514 0 ;
	setAttr ".pt[38]" -type "float3" 0 -0.041621514 0 ;
	setAttr ".pt[39]" -type "float3" 0 -0.041621514 0 ;
	setAttr ".pt[224]" -type "float3" 0 -0.041621514 0 ;
	setAttr ".pt[230]" -type "float3" 0 -0.041621514 0 ;
	setAttr ".pt[231]" -type "float3" 0 -0.041621514 0 ;
createNode groupParts -n "groupParts25";
	rename -uid "EE3E96C0-4795-8DA4-E70F-59A53310A7CE";
	setAttr ".ihi" 0;
	setAttr ".ic" -type "componentList" 1 "f[0:329]";
createNode polyUnite -n "polyUnite8";
	rename -uid "A6DD6AF3-4006-E1EF-1A3D-F8B45A80E007";
	setAttr -s 2 ".ip";
	setAttr -s 2 ".im";
createNode groupId -n "groupId67";
	rename -uid "3D69999B-44E7-0717-477C-A2931FF1B3FF";
	setAttr ".ihi" 0;
createNode groupParts -n "groupParts24";
	rename -uid "4222D139-46A3-2965-B5ED-D88AD548F6E6";
	setAttr ".ihi" 0;
	setAttr ".ic" -type "componentList" 1 "f[0:164]";
createNode polyUnite -n "polyUnite7";
	rename -uid "D3F27939-4A8D-1C19-8493-85AD7F34C86C";
	setAttr -s 4 ".ip";
	setAttr -s 4 ".im";
createNode groupId -n "groupId58";
	rename -uid "C708E105-4153-9858-C60C-F0B73C695C8C";
	setAttr ".ihi" 0;
createNode groupId -n "groupId59";
	rename -uid "F05B9B10-4929-C68B-9FE8-EEA750673BE0";
	setAttr ".ihi" 0;
createNode groupId -n "groupId60";
	rename -uid "FD68227F-4F2A-5B48-DA39-6F96835E26E1";
	setAttr ".ihi" 0;
createNode groupId -n "groupId61";
	rename -uid "9697BD5E-4A8C-D3F1-3130-78A4143271C7";
	setAttr ".ihi" 0;
createNode groupParts -n "groupParts23";
	rename -uid "641ABB32-49D0-A8EE-F1BA-B895E3FC76BB";
	setAttr ".ihi" 0;
	setAttr ".ic" -type "componentList" 1 "f[0:32]";
createNode polyBridgeEdge -n "polyBridgeEdge20";
	rename -uid "9E08D3C3-4ED5-DC9A-7C63-4590BE5FCA7E";
	setAttr ".ics" -type "componentList" 2 "e[21]" "e[48]";
	setAttr ".ix" -type "matrix" 0.48245379719591097 0.12930516900532771 0 0 -0.33093666180383013 1.2347661763778242 0 0
		 0 0 0.49948122403174428 0 2.6837224262321628 2.0974134231127093 -9.6134685148037651 1;
	setAttr ".c[0]"  0 1 1;
	setAttr ".dv" 0;
	setAttr ".sv1" 15;
	setAttr ".sv2" 26;
	setAttr ".d" 1;
createNode polyBridgeEdge -n "polyBridgeEdge19";
	rename -uid "5177C244-429F-E9F0-B51D-E1ACAF3A29BC";
	setAttr ".ics" -type "componentList" 2 "e[22]" "e[47]";
	setAttr ".ix" -type "matrix" 0.48245379719591097 0.12930516900532771 0 0 -0.33093666180383013 1.2347661763778242 0 0
		 0 0 0.49948122403174428 0 2.6837224262321628 2.0974134231127093 -9.6134685148037651 1;
	setAttr ".c[0]"  0 1 1;
	setAttr ".dv" 0;
	setAttr ".sv1" 8;
	setAttr ".sv2" 25;
	setAttr ".d" 1;
createNode groupId -n "groupId62";
	rename -uid "C4D7FA12-4CC9-86F1-5D7B-C0B770AABA46";
	setAttr ".ihi" 0;
createNode groupId -n "groupId63";
	rename -uid "CEDD14E3-4610-D1F7-2C16-6586F0BE884F";
	setAttr ".ihi" 0;
createNode groupId -n "groupId64";
	rename -uid "40C0F85E-4AFB-BA30-EB35-41874DC1BB52";
	setAttr ".ihi" 0;
createNode groupId -n "groupId65";
	rename -uid "7C209C7E-4C70-C549-8BE7-4EB34B173671";
	setAttr ".ihi" 0;
createNode groupId -n "groupId66";
	rename -uid "96C2AEE3-41A5-C104-6FFD-97B169107042";
	setAttr ".ihi" 0;
createNode groupId -n "groupId68";
	rename -uid "358C746C-4A9B-02FA-9120-8195BA7E2DCF";
	setAttr ".ihi" 0;
select -ne :time1;
	setAttr ".o" 1;
	setAttr ".unw" 1;
select -ne :hardwareRenderingGlobals;
	setAttr ".otfna" -type "stringArray" 22 "NURBS Curves" "NURBS Surfaces" "Polygons" "Subdiv Surface" "Particles" "Particle Instance" "Fluids" "Strokes" "Image Planes" "UI" "Lights" "Cameras" "Locators" "Joints" "IK Handles" "Deformers" "Motion Trails" "Components" "Hair Systems" "Follicles" "Misc. UI" "Ornaments"  ;
	setAttr ".otfva" -type "Int32Array" 22 0 1 1 1 1 1
		 1 1 1 0 0 0 0 0 0 0 0 0
		 0 0 0 0 ;
	setAttr ".fprt" yes;
select -ne :renderPartition;
	setAttr -s 4 ".st";
select -ne :renderGlobalsList1;
select -ne :defaultShaderList1;
	setAttr -s 7 ".s";
select -ne :postProcessList1;
	setAttr -s 2 ".p";
select -ne :defaultRenderingList1;
select -ne :initialShadingGroup;
	setAttr -s 54 ".dsm";
	setAttr ".ro" yes;
	setAttr -s 50 ".gn";
select -ne :initialParticleSE;
	setAttr ".ro" yes;
select -ne :defaultRenderGlobals;
	addAttr -ci true -h true -sn "dss" -ln "defaultSurfaceShader" -dt "string";
	setAttr ".dss" -type "string" "lambert1";
select -ne :defaultResolution;
	setAttr ".pa" 1;
select -ne :hardwareRenderGlobals;
	setAttr ".ctrs" 256;
	setAttr ".btrs" 512;
connectAttr "groupId64.id" "pCylinderShape20.iog.og[0].gid";
connectAttr ":initialShadingGroup.mwc" "pCylinderShape20.iog.og[0].gco";
connectAttr "groupId65.id" "pCylinderShape20.ciog.cog[0].cgid";
connectAttr "groupParts23.og" "pCylinderShape21.i";
connectAttr "groupId62.id" "pCylinderShape21.iog.og[0].gid";
connectAttr ":initialShadingGroup.mwc" "pCylinderShape21.iog.og[0].gco";
connectAttr "groupId63.id" "pCylinderShape21.ciog.cog[0].cgid";
connectAttr "groupId60.id" "pCylinderShape22.iog.og[0].gid";
connectAttr ":initialShadingGroup.mwc" "pCylinderShape22.iog.og[0].gco";
connectAttr "groupId61.id" "pCylinderShape22.ciog.cog[0].cgid";
connectAttr "groupId58.id" "pCylinderShape23.iog.og[0].gid";
connectAttr ":initialShadingGroup.mwc" "pCylinderShape23.iog.og[0].gco";
connectAttr "groupId59.id" "pCylinderShape23.ciog.cog[0].cgid";
connectAttr "groupParts24.og" "pCylinder24Shape.i";
connectAttr "groupId66.id" "pCylinder24Shape.iog.og[0].gid";
connectAttr ":initialShadingGroup.mwc" "pCylinder24Shape.iog.og[0].gco";
connectAttr "groupId67.id" "pCylinder25Shape.iog.og[0].gid";
connectAttr ":initialShadingGroup.mwc" "pCylinder25Shape.iog.og[0].gco";
connectAttr "groupParts25.og" "pCylinder26Shape.i";
connectAttr "groupId68.id" "pCylinder26Shape.iog.og[0].gid";
connectAttr ":initialShadingGroup.mwc" "pCylinder26Shape.iog.og[0].gco";
connectAttr "polyUnite8.out" "groupParts25.ig";
connectAttr "groupId68.id" "groupParts25.gi";
connectAttr "pCylinder25Shape.o" "polyUnite8.ip[0]";
connectAttr "pCylinder24Shape.o" "polyUnite8.ip[1]";
connectAttr "pCylinder25Shape.wm" "polyUnite8.im[0]";
connectAttr "pCylinder24Shape.wm" "polyUnite8.im[1]";
connectAttr "polyUnite7.out" "groupParts24.ig";
connectAttr "groupId66.id" "groupParts24.gi";
connectAttr "pCylinderShape23.o" "polyUnite7.ip[0]";
connectAttr "pCylinderShape22.o" "polyUnite7.ip[1]";
connectAttr "pCylinderShape21.o" "polyUnite7.ip[2]";
connectAttr "pCylinderShape20.o" "polyUnite7.ip[3]";
connectAttr "pCylinderShape23.wm" "polyUnite7.im[0]";
connectAttr "pCylinderShape22.wm" "polyUnite7.im[1]";
connectAttr "pCylinderShape21.wm" "polyUnite7.im[2]";
connectAttr "pCylinderShape20.wm" "polyUnite7.im[3]";
connectAttr "polyBridgeEdge20.out" "groupParts23.ig";
connectAttr "groupId62.id" "groupParts23.gi";
connectAttr "polyBridgeEdge19.out" "polyBridgeEdge20.ip";
connectAttr "pCylinderShape21.wm" "polyBridgeEdge20.mp";
connectAttr "|pCylinder21|polySurfaceShape6.o" "polyBridgeEdge19.ip";
connectAttr "pCylinderShape21.wm" "polyBridgeEdge19.mp";
connectAttr "pCylinderShape23.iog.og[0]" ":initialShadingGroup.dsm" -na;
connectAttr "pCylinderShape23.ciog.cog[0]" ":initialShadingGroup.dsm" -na;
connectAttr "pCylinderShape22.iog.og[0]" ":initialShadingGroup.dsm" -na;
connectAttr "pCylinderShape22.ciog.cog[0]" ":initialShadingGroup.dsm" -na;
connectAttr "pCylinderShape21.iog.og[0]" ":initialShadingGroup.dsm" -na;
connectAttr "pCylinderShape21.ciog.cog[0]" ":initialShadingGroup.dsm" -na;
connectAttr "pCylinderShape20.iog.og[0]" ":initialShadingGroup.dsm" -na;
connectAttr "pCylinderShape20.ciog.cog[0]" ":initialShadingGroup.dsm" -na;
connectAttr "pCylinder24Shape.iog.og[0]" ":initialShadingGroup.dsm" -na;
connectAttr "pCylinder25Shape.iog.og[0]" ":initialShadingGroup.dsm" -na;
connectAttr "pCylinder26Shape.iog.og[0]" ":initialShadingGroup.dsm" -na;
connectAttr "groupId58.msg" ":initialShadingGroup.gn" -na;
connectAttr "groupId59.msg" ":initialShadingGroup.gn" -na;
connectAttr "groupId60.msg" ":initialShadingGroup.gn" -na;
connectAttr "groupId61.msg" ":initialShadingGroup.gn" -na;
connectAttr "groupId62.msg" ":initialShadingGroup.gn" -na;
connectAttr "groupId63.msg" ":initialShadingGroup.gn" -na;
connectAttr "groupId64.msg" ":initialShadingGroup.gn" -na;
connectAttr "groupId65.msg" ":initialShadingGroup.gn" -na;
connectAttr "groupId66.msg" ":initialShadingGroup.gn" -na;
connectAttr "groupId67.msg" ":initialShadingGroup.gn" -na;
connectAttr "groupId68.msg" ":initialShadingGroup.gn" -na;
// End of Archway.ma
