//Maya ASCII 2020 scene
//Name: ground.ma
//Last modified: Fri, Sep 11, 2020 03:42:18 PM
//Codeset: 1252
requires maya "2020";
requires "stereoCamera" "10.0";
requires "stereoCamera" "10.0";
currentUnit -l centimeter -a degree -t film;
fileInfo "application" "maya";
fileInfo "product" "Maya 2020";
fileInfo "version" "2020";
fileInfo "cutIdentifier" "201911140446-42a737a01c";
fileInfo "osv" "Microsoft Windows 10 Technical Preview  (Build 18363)\n";
fileInfo "UUID" "E3ED6091-46F3-67CC-18A7-4DB1CEB5A641";
fileInfo "license" "student";
createNode transform -n "pCube2";
	rename -uid "DF60D860-452E-5866-5B9F-F0897C25F240";
	setAttr ".t" -type "double3" -11.37514946590543 0 -7.0779660075393798 ;
	setAttr ".r" -type "double3" 90 0 0 ;
createNode mesh -n "pCubeShape2" -p "pCube2";
	rename -uid "44A489A1-46FD-6101-1D13-B79313B6620D";
	setAttr -k off ".v";
	setAttr ".vir" yes;
	setAttr ".vif" yes;
	setAttr ".pv" -type "double2" 0.5 0.37499990686774254 ;
	setAttr ".uvst[0].uvsn" -type "string" "map1";
	setAttr ".cuvs" -type "string" "map1";
	setAttr ".dcc" -type "string" "Ambient+Diffuse";
	setAttr ".covm[0]"  0 1 1;
	setAttr ".cdvm[0]"  0 1 1;
	setAttr -s 58 ".pt";
	setAttr ".pt[2]" -type "float3" -0.027534876 -0.022027897 0.027534876 ;
	setAttr ".pt[3]" -type "float3" 0.027534876 -0.022027897 0.027534876 ;
	setAttr ".pt[4]" -type "float3" -0.027491231 -0.021993069 0.027491231 ;
	setAttr ".pt[5]" -type "float3" 0.027491231 -0.021993069 0.027491231 ;
	setAttr ".pt[6]" -type "float3" -0.010579555 -0.0063477317 0.010579555 ;
	setAttr ".pt[7]" -type "float3" 0.010579555 -0.0063477317 0.010579555 ;
	setAttr ".pt[8]" -type "float3" -0.02753488 -0.01101395 0.02753488 ;
	setAttr ".pt[9]" -type "float3" 0.02753488 -0.01101395 0.02753488 ;
	setAttr ".pt[10]" -type "float3" -0.027491231 -0.010996527 0.027491231 ;
	setAttr ".pt[11]" -type "float3" 0.027491231 -0.010996527 0.027491231 ;
	setAttr ".pt[12]" -type "float3" -0.010579552 -0.0021159104 0.010579552 ;
	setAttr ".pt[13]" -type "float3" 0.010579552 -0.0021159104 0.010579552 ;
	setAttr ".pt[14]" -type "float3" -0.027534883 1.0914804e-09 0.027534883 ;
	setAttr ".pt[15]" -type "float3" 0.027534883 1.0914804e-09 0.027534883 ;
	setAttr ".pt[16]" -type "float3" -0.027491231 -3.3479719e-10 0.027491231 ;
	setAttr ".pt[17]" -type "float3" 0.027491231 -3.3479719e-10 0.027491231 ;
	setAttr ".pt[18]" -type "float3" -0.010579552 0.0021159099 0.010579552 ;
	setAttr ".pt[19]" -type "float3" 0.010579552 0.0021159099 0.010579552 ;
	setAttr ".pt[20]" -type "float3" -0.027534883 0.011013948 0.027534876 ;
	setAttr ".pt[21]" -type "float3" 0.027534883 0.011013948 0.027534876 ;
	setAttr ".pt[22]" -type "float3" -0.027491231 0.010996527 0.027491231 ;
	setAttr ".pt[23]" -type "float3" 0.027491231 0.010996527 0.027491231 ;
	setAttr ".pt[24]" -type "float3" -0.010579555 0.0063477308 0.010579548 ;
	setAttr ".pt[25]" -type "float3" 0.010579555 0.0063477308 0.010579548 ;
	setAttr ".pt[26]" -type "float3" -0.02753488 0.022027897 0.02753488 ;
	setAttr ".pt[27]" -type "float3" 0.02753488 0.022027897 0.02753488 ;
	setAttr ".pt[28]" -type "float3" -0.027491231 0.021993054 0.027491231 ;
	setAttr ".pt[29]" -type "float3" 0.027491231 0.021993054 0.027491231 ;
	setAttr ".pt[32]" -type "float3" 3.7252903e-09 -1.8626451e-09 3.7252903e-09 ;
	setAttr ".pt[33]" -type "float3" -3.7252903e-09 -1.8626451e-09 3.7252903e-09 ;
	setAttr ".pt[34]" -type "float3" -0.027491231 0.021993069 -0.027491231 ;
	setAttr ".pt[35]" -type "float3" 0.027491231 0.021993069 -0.027491231 ;
	setAttr ".pt[36]" -type "float3" -0.02753488 0.022027893 -0.02753488 ;
	setAttr ".pt[37]" -type "float3" 0.02753488 0.022027893 -0.02753488 ;
	setAttr ".pt[38]" -type "float3" -0.010579552 0.0063477308 -0.010579552 ;
	setAttr ".pt[39]" -type "float3" 0.010579552 0.0063477308 -0.010579552 ;
	setAttr ".pt[40]" -type "float3" -0.027491231 0.010996527 -0.027491231 ;
	setAttr ".pt[41]" -type "float3" 0.027491231 0.010996527 -0.027491231 ;
	setAttr ".pt[42]" -type "float3" -0.02753488 0.01101395 -0.02753488 ;
	setAttr ".pt[43]" -type "float3" 0.02753488 0.01101395 -0.02753488 ;
	setAttr ".pt[44]" -type "float3" -0.010579552 0.0021159104 -0.010579552 ;
	setAttr ".pt[45]" -type "float3" 0.010579552 0.0021159104 -0.010579552 ;
	setAttr ".pt[46]" -type "float3" -0.027491231 7.9283058e-10 -0.027491231 ;
	setAttr ".pt[47]" -type "float3" 0.027491231 7.9283058e-10 -0.027491231 ;
	setAttr ".pt[48]" -type "float3" -0.02753488 4.0428094e-10 -0.02753488 ;
	setAttr ".pt[49]" -type "float3" 0.02753488 4.0428094e-10 -0.02753488 ;
	setAttr ".pt[50]" -type "float3" -0.010579552 -0.0021159099 -0.010579552 ;
	setAttr ".pt[51]" -type "float3" 0.010579552 -0.0021159099 -0.010579552 ;
	setAttr ".pt[52]" -type "float3" -0.027491231 -0.010996527 -0.027491231 ;
	setAttr ".pt[53]" -type "float3" 0.027491231 -0.010996527 -0.027491231 ;
	setAttr ".pt[54]" -type "float3" -0.02753488 -0.011013948 -0.02753488 ;
	setAttr ".pt[55]" -type "float3" 0.02753488 -0.011013948 -0.02753488 ;
	setAttr ".pt[56]" -type "float3" -0.010579552 -0.0063477298 -0.010579552 ;
	setAttr ".pt[57]" -type "float3" 0.010579552 -0.0063477298 -0.010579552 ;
	setAttr ".pt[58]" -type "float3" -0.027491231 -0.021993054 -0.027491231 ;
	setAttr ".pt[59]" -type "float3" 0.027491231 -0.021993054 -0.027491231 ;
	setAttr ".pt[60]" -type "float3" -0.02753488 -0.022027897 -0.02753488 ;
	setAttr ".pt[61]" -type "float3" 0.02753488 -0.022027897 -0.02753488 ;
createNode polyCube -n "polyCube2";
	rename -uid "24BB7A80-4BD6-1BF9-714A-ECB27BF7FD45";
	setAttr ".sh" 15;
	setAttr ".cuv" 4;
select -ne :time1;
	setAttr ".o" 1;
	setAttr ".unw" 1;
select -ne :hardwareRenderingGlobals;
	setAttr ".otfna" -type "stringArray" 22 "NURBS Curves" "NURBS Surfaces" "Polygons" "Subdiv Surface" "Particles" "Particle Instance" "Fluids" "Strokes" "Image Planes" "UI" "Lights" "Cameras" "Locators" "Joints" "IK Handles" "Deformers" "Motion Trails" "Components" "Hair Systems" "Follicles" "Misc. UI" "Ornaments"  ;
	setAttr ".otfva" -type "Int32Array" 22 0 1 1 1 1 1
		 1 1 1 0 0 0 0 0 0 0 0 0
		 0 0 0 0 ;
	setAttr ".fprt" yes;
select -ne :renderPartition;
	setAttr -s 4 ".st";
select -ne :renderGlobalsList1;
select -ne :defaultShaderList1;
	setAttr -s 7 ".s";
select -ne :postProcessList1;
	setAttr -s 2 ".p";
select -ne :defaultRenderingList1;
select -ne :initialShadingGroup;
	setAttr -s 54 ".dsm";
	setAttr ".ro" yes;
	setAttr -s 50 ".gn";
select -ne :initialParticleSE;
	setAttr ".ro" yes;
select -ne :defaultRenderGlobals;
	addAttr -ci true -h true -sn "dss" -ln "defaultSurfaceShader" -dt "string";
	setAttr ".dss" -type "string" "lambert1";
select -ne :defaultResolution;
	setAttr ".pa" 1;
select -ne :hardwareRenderGlobals;
	setAttr ".ctrs" 256;
	setAttr ".btrs" 512;
connectAttr "polyCube2.out" "pCubeShape2.i";
connectAttr "pCubeShape2.iog" ":initialShadingGroup.dsm" -na;
// End of ground.ma
