//Maya ASCII 2020 scene
//Name: Singular Pillar.ma
//Last modified: Wed, Sep 09, 2020 01:24:01 PM
//Codeset: 1252
requires maya "2020";
currentUnit -l centimeter -a degree -t film;
fileInfo "application" "maya";
fileInfo "product" "Maya 2020";
fileInfo "version" "2020";
fileInfo "cutIdentifier" "201911140446-42a737a01c";
fileInfo "osv" "Microsoft Windows 10 Technical Preview  (Build 18363)\n";
fileInfo "UUID" "1C2EB608-45F6-3093-8CB0-B989DC187078";
fileInfo "license" "student";
createNode transform -n "pCylinder2";
	rename -uid "02B3BEB7-49A3-1102-97F5-4CA1B6CA438F";
	setAttr ".t" -type "double3" 8.695006715118911 6.4439221116556098 37.422163555733597 ;
	setAttr ".s" -type "double3" 2.428618273560355 6.2156743649956505 2.428618273560355 ;
createNode mesh -n "pCylinderShape2" -p "pCylinder2";
	rename -uid "A5BD2113-4E93-7F2E-D395-0789B0743B59";
	setAttr -k off ".v";
	setAttr ".vir" yes;
	setAttr ".vif" yes;
	setAttr ".pv" -type "double2" 0.5 0.84375 ;
	setAttr ".uvst[0].uvsn" -type "string" "map1";
	setAttr -s 97 ".uvst[0].uvsp[0:96]" -type "float2" 0.61048543 0.04576458
		 0.5 1.4901161e-08 0.38951457 0.04576458 0.34375 0.15625 0.38951457 0.26673543 0.5
		 0.3125 0.61048543 0.26673543 0.65625 0.15625 0.375 0.3125 0.40625 0.3125 0.4375 0.3125
		 0.46875 0.3125 0.5 0.3125 0.53125 0.3125 0.5625 0.3125 0.59375 0.3125 0.625 0.3125
		 0.375 0.68843985 0.40625 0.68843985 0.4375 0.68843985 0.46875 0.68843985 0.5 0.68843985
		 0.53125 0.68843985 0.5625 0.68843985 0.59375 0.68843985 0.625 0.68843985 0.61048543
		 0.73326457 0.5 0.6875 0.38951457 0.73326457 0.34375 0.84375 0.38951457 0.95423543
		 0.5 1 0.61048543 0.95423543 0.65625 0.84375 0.625 0.38768798 0.375 0.38768798 0.59375
		 0.38768798 0.5625 0.38768798 0.53125 0.38768798 0.5 0.38768798 0.46875 0.38768798
		 0.4375 0.38768798 0.40625003 0.38768798 0.625 0.47791356 0.375 0.47791356 0.59375
		 0.47791356 0.5625 0.47791356 0.53125 0.47791356 0.5 0.47791356 0.46875 0.47791356
		 0.4375 0.47791356 0.40625 0.47791356 0.625 0.56212407 0.375 0.56212407 0.59375 0.56212407
		 0.5625 0.56212407 0.53125 0.56212407 0.5 0.56212407 0.46875 0.56212407 0.4375 0.56212407
		 0.40625 0.56212407 0.625 0.63791353 0.375 0.63791353 0.59375 0.63791353 0.5625 0.63791353
		 0.53125 0.63791353 0.5 0.63791353 0.46875 0.63791353 0.4375 0.63791353 0.40625 0.63791353
		 0.625 0.6000188 0.375 0.6000188 0.40625 0.6000188 0.4375 0.6000188 0.46875 0.6000188
		 0.5 0.6000188 0.53125 0.6000188 0.5625 0.6000188 0.59375 0.6000188 0.625 0.51159775
		 0.375 0.51159775 0.40625 0.51159775 0.4375 0.51159775 0.46875 0.51159775 0.5 0.51159775
		 0.53125 0.51159775 0.5625 0.51159775 0.59375 0.51159775 0.625 0.42377824 0.375 0.42377824
		 0.40625003 0.42377824 0.4375 0.42377824 0.46875 0.42377824 0.5 0.42377824 0.53125
		 0.42377824 0.5625 0.42377824 0.59375 0.42377824;
	setAttr ".cuvs" -type "string" "map1";
	setAttr ".dcc" -type "string" "Ambient+Diffuse";
	setAttr ".covm[0]"  0 1 1;
	setAttr ".cdvm[0]"  0 1 1;
	setAttr -s 56 ".pt[16:71]" -type "float3"  0.045145411 -0.065561339 
		-0.045145411 0.063845254 -0.065561339 -3.5713572e-09 0.045145411 -0.065561339 0.045145411 
		-3.8054737e-09 -0.065561339 0.063845247 -0.045145411 -0.065561339 0.045145411 -0.063845254 
		-0.065561339 -3.5713572e-09 -0.045145411 -0.065561339 -0.045145411 -3.8054737e-09 
		-0.065561339 -0.063845247 0.045145411 -0.034915622 -0.045145411 0.063845254 -0.034915622 
		-3.5713572e-09 0.045145411 -0.034915622 0.045145411 -3.8054737e-09 -0.034915622 0.06384524 
		-0.045145411 -0.034915622 0.045145411 -0.063845254 -0.034915622 -3.5713572e-09 -0.045145411 
		-0.034915622 -0.045145411 -3.8054737e-09 -0.034915622 -0.063845247 0.045145411 -0.0063129519 
		-0.045145411 0.063845254 -0.0063129519 -3.5713572e-09 0.045145411 -0.0063129519 0.045145411 
		-3.8054737e-09 -0.0063129519 0.063845247 -0.045145411 -0.0063129519 0.045145411 -0.063845254 
		-0.0063129519 -3.5713572e-09 -0.045145411 -0.0063129519 -0.045145411 -3.8054737e-09 
		-0.0063129519 -0.063845247 0.045145411 0.019429462 -0.045145411 0.063845254 0.019429462 
		-3.5713572e-09 0.045145411 0.019429462 0.045145411 -3.8054737e-09 0.019429462 0.06384524 
		-0.045145411 0.019429462 0.045145411 -0.063845254 0.019429462 -3.5713572e-09 -0.045145411 
		0.019429462 -0.045145411 -3.8054737e-09 0.019429462 -0.063845247 -0.042353563 -0.028079715 
		0.042353563 3.5701393e-09 -0.028079715 0.059896979 0.042353563 -0.028079715 0.042353563 
		0.059896998 -0.028079715 2.1963802e-10 0.042353563 -0.028079715 -0.04235357 3.5701393e-09 
		-0.028079715 -0.059896994 -0.042353563 -0.028079715 -0.04235357 -0.059896998 -0.028079715 
		2.1963802e-10 -0.042353563 9.5834606e-05 0.042353563 3.5701393e-09 9.5834606e-05 
		0.059896994 0.042353563 9.5834606e-05 0.042353563 0.059896998 9.5834606e-05 2.1963802e-10 
		0.042353563 9.5834606e-05 -0.04235357 3.5701393e-09 9.5834606e-05 -0.059896994 -0.042353563 
		9.5834606e-05 -0.04235357 -0.059896998 9.5834606e-05 2.1963802e-10 -0.042353563 0.028079715 
		0.042353563 3.5701393e-09 0.028079715 0.059896994 0.042353563 0.028079715 0.042353563 
		0.059896998 0.028079715 2.1963802e-10 0.042353563 0.028079715 -0.04235357 3.5701393e-09 
		0.028079715 -0.059896994 -0.042353563 0.028079715 -0.04235357 -0.059896998 0.028079715 
		2.1963802e-10;
	setAttr -s 72 ".vt[0:71]"  0.70710671 -1 -0.70710671 0 -1 -0.99999988
		 -0.70710671 -1 -0.70710671 -0.99999988 -1 0 -0.70710671 -1 0.70710671 0 -1 0.99999994
		 0.70710677 -1 0.70710677 1 -1 0 0.70710671 1 -0.70710671 0 1 -0.99999988 -0.70710671 1 -0.70710671
		 -0.99999988 1 0 -0.70710671 1 0.70710671 0 1 0.99999994 0.70710677 1 0.70710677 1 1 0
		 0.80631745 -0.69338709 -0.80631733 1.14030516 -0.69338709 -4.1814174e-09 0.80631745 -0.69338709 0.80631745
		 -8.3628349e-09 -0.69338709 1.14030504 -0.80631733 -0.69338709 0.80631745 -1.14030504 -0.69338709 -4.1814174e-09
		 -0.80631733 -0.69338709 -0.80631733 -8.3628349e-09 -0.69338709 -1.14030492 0.80631745 -0.1460406 -0.80631733
		 1.14030516 -0.1460406 -4.1814174e-09 0.80631745 -0.1460406 0.80631745 -8.3628349e-09 -0.1460406 1.14030492
		 -0.80631733 -0.1460406 0.80631745 -1.14030504 -0.1460406 -4.1814174e-09 -0.80631733 -0.1460406 -0.80631733
		 -8.3628349e-09 -0.1460406 -1.14030492 0.80631745 0.36481604 -0.80631733 1.14030516 0.36481604 -4.1814174e-09
		 0.80631745 0.36481604 0.80631745 -8.3628349e-09 0.36481604 1.14030504 -0.80631733 0.36481604 0.80631745
		 -1.14030504 0.36481604 -4.1814174e-09 -0.80631733 0.36481604 -0.80631733 -8.3628349e-09 0.36481604 -1.14030492
		 0.80631745 0.82458711 -0.80631733 1.14030516 0.82458711 -4.1814174e-09 0.80631745 0.82458711 0.80631745
		 -8.3628349e-09 0.82458711 1.14030492 -0.80631733 0.82458711 0.80631745 -1.14030504 0.82458711 -4.1814174e-09
		 -0.80631733 0.82458711 -0.80631733 -8.3628349e-09 0.82458711 -1.14030492 0.80631745 0.59470159 -0.80631733
		 -8.3628349e-09 0.59470159 -1.14030492 -0.80631733 0.59470159 -0.80631733 -1.14030504 0.59470159 -4.1814174e-09
		 -0.80631733 0.59470159 0.80631745 -8.3628349e-09 0.59470159 1.14030504 0.80631745 0.59470159 0.80631745
		 1.14030516 0.59470159 -4.1814174e-09 0.80631745 0.058302052 -0.80631733 -8.3628349e-09 0.058302052 -1.14030504
		 -0.80631733 0.058302052 -0.80631733 -1.14030504 0.058302052 -4.1814174e-09 -0.80631733 0.058302052 0.80631745
		 -8.3628349e-09 0.058302052 1.14030504 0.80631745 0.058302052 0.80631745 1.14030516 0.058302052 -4.1814174e-09
		 0.80631745 -0.47444853 -0.80631733 -8.3628349e-09 -0.47444853 -1.14030504 -0.80631733 -0.47444853 -0.80631733
		 -1.14030504 -0.47444853 -4.1814174e-09 -0.80631733 -0.47444853 0.80631745 -8.3628349e-09 -0.47444853 1.14030504
		 0.80631745 -0.47444853 0.80631745 1.14030516 -0.47444853 -4.1814174e-09;
	setAttr -s 136 ".ed[0:135]"  0 1 0 1 2 0 2 3 0 3 4 0 4 5 0 5 6 0 6 7 0
		 7 0 0 8 9 0 9 10 0 10 11 0 11 12 0 12 13 0 13 14 0 14 15 0 15 8 0 0 16 0 1 23 0 2 22 0
		 3 21 0 4 20 0 5 19 0 6 18 0 7 17 0 16 64 0 17 71 0 18 70 0 19 69 0 20 68 0 21 67 0
		 22 66 0 23 65 0 16 17 1 17 18 1 18 19 1 19 20 1 20 21 1 21 22 1 22 23 1 23 16 1 24 56 0
		 25 63 0 26 62 0 27 61 0 28 60 0 29 59 0 30 58 0 31 57 0 24 25 1 25 26 1 26 27 1 27 28 1
		 28 29 1 29 30 1 30 31 1 31 24 1 32 48 0 33 55 0 34 54 0 35 53 0 36 52 0 37 51 0 38 50 0
		 39 49 0 32 33 1 33 34 1 34 35 1 35 36 1 36 37 1 37 38 1 38 39 1 39 32 1 40 8 0 41 15 0
		 42 14 0 43 13 0 44 12 0 45 11 0 46 10 0 47 9 0 40 41 1 41 42 1 42 43 1 43 44 1 44 45 1
		 45 46 1 46 47 1 47 40 1 48 40 0 49 47 0 50 46 0 51 45 0 52 44 0 53 43 0 54 42 0 55 41 0
		 48 49 1 49 50 1 50 51 1 51 52 1 52 53 1 53 54 1 54 55 1 55 48 1 56 32 0 57 39 0 58 38 0
		 59 37 0 60 36 0 61 35 0 62 34 0 63 33 0 56 57 1 57 58 1 58 59 1 59 60 1 60 61 1 61 62 1
		 62 63 1 63 56 1 64 24 0 65 31 0 66 30 0 67 29 0 68 28 0 69 27 0 70 26 0 71 25 0 64 65 1
		 65 66 1 66 67 1 67 68 1 68 69 1 69 70 1 70 71 1 71 64 1;
	setAttr -s 66 -ch 272 ".fc[0:65]" -type "polyFaces" 
		f 4 0 17 39 -17
		mu 0 4 8 9 42 35
		f 4 1 18 38 -18
		mu 0 4 9 10 41 42
		f 4 2 19 37 -19
		mu 0 4 10 11 40 41
		f 4 3 20 36 -20
		mu 0 4 11 12 39 40
		f 4 4 21 35 -21
		mu 0 4 12 13 38 39
		f 4 5 22 34 -22
		mu 0 4 13 14 37 38
		f 4 6 23 33 -23
		mu 0 4 14 15 36 37
		f 4 7 16 32 -24
		mu 0 4 15 16 34 36
		f 8 -8 -7 -6 -5 -4 -3 -2 -1
		mu 0 8 0 7 6 5 4 3 2 1
		f 8 8 9 10 11 12 13 14 15
		mu 0 8 32 31 30 29 28 27 26 33
		f 4 135 120 48 -128
		mu 0 4 96 88 43 45
		f 4 134 127 49 -127
		mu 0 4 95 96 45 46
		f 4 133 126 50 -126
		mu 0 4 94 95 46 47
		f 4 132 125 51 -125
		mu 0 4 93 94 47 48
		f 4 131 124 52 -124
		mu 0 4 92 93 48 49
		f 4 130 123 53 -123
		mu 0 4 91 92 49 50
		f 4 129 122 54 -122
		mu 0 4 90 91 50 51
		f 4 128 121 55 -121
		mu 0 4 89 90 51 44
		f 4 119 104 64 -112
		mu 0 4 87 79 52 54
		f 4 118 111 65 -111
		mu 0 4 86 87 54 55
		f 4 117 110 66 -110
		mu 0 4 85 86 55 56
		f 4 116 109 67 -109
		mu 0 4 84 85 56 57
		f 4 115 108 68 -108
		mu 0 4 83 84 57 58
		f 4 114 107 69 -107
		mu 0 4 82 83 58 59
		f 4 113 106 70 -106
		mu 0 4 81 82 59 60
		f 4 112 105 71 -105
		mu 0 4 80 81 60 53
		f 4 103 88 80 -96
		mu 0 4 78 70 61 63
		f 4 102 95 81 -95
		mu 0 4 77 78 63 64
		f 4 101 94 82 -94
		mu 0 4 76 77 64 65
		f 4 100 93 83 -93
		mu 0 4 75 76 65 66
		f 4 99 92 84 -92
		mu 0 4 74 75 66 67
		f 4 98 91 85 -91
		mu 0 4 73 74 67 68
		f 4 97 90 86 -90
		mu 0 4 72 73 68 69
		f 4 96 89 87 -89
		mu 0 4 71 72 69 62
		f 4 -81 72 -16 -74
		mu 0 4 63 61 25 24
		f 4 -82 73 -15 -75
		mu 0 4 64 63 24 23
		f 4 -83 74 -14 -76
		mu 0 4 65 64 23 22
		f 4 -84 75 -13 -77
		mu 0 4 66 65 22 21
		f 4 -85 76 -12 -78
		mu 0 4 67 66 21 20
		f 4 -86 77 -11 -79
		mu 0 4 68 67 20 19
		f 4 -87 78 -10 -80
		mu 0 4 69 68 19 18
		f 4 -88 79 -9 -73
		mu 0 4 62 69 18 17
		f 4 -72 63 -97 -57
		mu 0 4 53 60 72 71
		f 4 -71 62 -98 -64
		mu 0 4 60 59 73 72
		f 4 -70 61 -99 -63
		mu 0 4 59 58 74 73
		f 4 -69 60 -100 -62
		mu 0 4 58 57 75 74
		f 4 -68 59 -101 -61
		mu 0 4 57 56 76 75
		f 4 -67 58 -102 -60
		mu 0 4 56 55 77 76
		f 4 -66 57 -103 -59
		mu 0 4 55 54 78 77
		f 4 -65 56 -104 -58
		mu 0 4 54 52 70 78
		f 4 -56 47 -113 -41
		mu 0 4 44 51 81 80
		f 4 -55 46 -114 -48
		mu 0 4 51 50 82 81
		f 4 -54 45 -115 -47
		mu 0 4 50 49 83 82
		f 4 -53 44 -116 -46
		mu 0 4 49 48 84 83
		f 4 -52 43 -117 -45
		mu 0 4 48 47 85 84
		f 4 -51 42 -118 -44
		mu 0 4 47 46 86 85
		f 4 -50 41 -119 -43
		mu 0 4 46 45 87 86
		f 4 -49 40 -120 -42
		mu 0 4 45 43 79 87
		f 4 -40 31 -129 -25
		mu 0 4 35 42 90 89
		f 4 -39 30 -130 -32
		mu 0 4 42 41 91 90
		f 4 -38 29 -131 -31
		mu 0 4 41 40 92 91
		f 4 -37 28 -132 -30
		mu 0 4 40 39 93 92
		f 4 -36 27 -133 -29
		mu 0 4 39 38 94 93
		f 4 -35 26 -134 -28
		mu 0 4 38 37 95 94
		f 4 -34 25 -135 -27
		mu 0 4 37 36 96 95
		f 4 -33 24 -136 -26
		mu 0 4 36 34 88 96;
	setAttr ".cd" -type "dataPolyComponent" Index_Data Edge 0 ;
	setAttr ".cvd" -type "dataPolyComponent" Index_Data Vertex 0 ;
	setAttr ".pd[0]" -type "dataPolyComponent" Index_Data UV 0 ;
	setAttr ".hfd" -type "dataPolyComponent" Index_Data Face 0 ;
select -ne :time1;
	setAttr ".o" 1;
	setAttr ".unw" 1;
select -ne :hardwareRenderingGlobals;
	setAttr ".otfna" -type "stringArray" 22 "NURBS Curves" "NURBS Surfaces" "Polygons" "Subdiv Surface" "Particles" "Particle Instance" "Fluids" "Strokes" "Image Planes" "UI" "Lights" "Cameras" "Locators" "Joints" "IK Handles" "Deformers" "Motion Trails" "Components" "Hair Systems" "Follicles" "Misc. UI" "Ornaments"  ;
	setAttr ".otfva" -type "Int32Array" 22 0 1 1 1 1 1
		 1 1 1 0 0 0 0 0 0 0 0 0
		 0 0 0 0 ;
	setAttr ".fprt" yes;
select -ne :renderPartition;
	setAttr -s 4 ".st";
select -ne :renderGlobalsList1;
select -ne :defaultShaderList1;
	setAttr -s 7 ".s";
select -ne :postProcessList1;
	setAttr -s 2 ".p";
select -ne :defaultRenderingList1;
select -ne :initialShadingGroup;
	setAttr -s 9 ".dsm";
	setAttr ".ro" yes;
	setAttr -s 5 ".gn";
select -ne :initialParticleSE;
	setAttr ".ro" yes;
select -ne :defaultRenderGlobals;
	addAttr -ci true -h true -sn "dss" -ln "defaultSurfaceShader" -dt "string";
	setAttr ".dss" -type "string" "lambert1";
select -ne :defaultResolution;
	setAttr ".pa" 1;
select -ne :hardwareRenderGlobals;
	setAttr ".ctrs" 256;
	setAttr ".btrs" 512;
select -ne :ikSystem;
	setAttr -s 4 ".sol";
connectAttr "pCylinderShape2.iog" ":initialShadingGroup.dsm" -na;
// End of Singular Pillar.ma
